STAT: jconf successfully finalized
STAT: *** loading AM00 _default
Stat: init_phmm: Reading in HMM definition
Stat: read_binhmm: binary format HMM definition
Stat: read_binhmm: this HMM does not need multipath handling
Stat: init_phmm: defined HMMs:    43
Stat: init_phmm: logical names:    43
Stat: init_phmm: base phones:    43 used in logical
Stat: init_phmm: finished reading HMM definitions
STAT: *** AM00 _default loaded
STAT: *** loading LM00 _default
STAT: reading [data/uemura_angry/wav/uemura_angry_085_for_julius.dfa] and [data/uemura_angry/wav/uemura_angry_085_for_julius.dict]...
Stat: init_voca: read 3 words
STAT: done
STAT: Gram #0 uemura_angry_085_for_julius registered
STAT: Gram #0 uemura_angry_085_for_julius: new grammar loaded, now mash it up for recognition
STAT: Gram #0 uemura_angry_085_for_julius: extracting category-pair constraint for the 1st pass
STAT: Gram #0 uemura_angry_085_for_julius: installed
STAT: Gram #0 uemura_angry_085_for_julius: turn on active
STAT: grammar update completed
STAT: *** LM00 _default loaded
STAT: ------
STAT: All models are ready, go for final fusion
STAT: [1] create MFCC extraction instance(s)
STAT: *** create MFCC calculation modules from AM
STAT: AM 0 _default: create a new module MFCC01
STAT: 1 MFCC modules created
STAT: [2] create recognition processing instance(s) with AM and LM
STAT: composing recognizer instance SR00 _default (AM00 _default, LM00 _default)
STAT: Building HMM lexicon tree
STAT: lexicon size: 309+0=309
STAT: coordination check passed
STAT: multi-gram: beam width set to 200 (guess) by lexicon change
STAT: wchmm (re)build completed
STAT: SR00 _default composed
STAT: [3] initialize for acoustic HMM calculation
Stat: outprob_init: state-level mixture PDFs, use calc_mix()
Stat: addlog: generating addlog table (size = 1953 kB)
Stat: addlog: addlog table generated
STAT: [4] prepare MFCC storage(s)
STAT: All init successfully done

STAT: ###### initialize input device
----------------------- System Information begin ---------------------
JuliusLib rev.4.4.2.1 (fast)

Engine specification:
 -  Base setup   : fast
 -  Supported LM : DFA, N-gram, Word
 -  Extension    :
 -  Compiled by  : gcc -g -O2
Library configuration: version 4.4.2.1
 - Audio input
    primary A/D-in driver   : coreaudio (MacOSX CoreAudio)
    available drivers       :
    wavefile formats        : RAW and WAV only
    max. length of an input : 320000 samples, 150 words
 - Language Model
    class N-gram support    : yes
    MBR weight support      : yes
    word id unit            : short (2 bytes)
 - Acoustic Model
    multi-path treatment    : autodetect
 - External library
    file decompression by   : zlib library
 - Process hangling
    fork on adinnet input   : no
 - built-in SIMD instruction set for DNN
    SSE AVX FMA
    FMA is available maximum on this cpu, use it


------------------------------------------------------------
Configuration of Modules

 Number of defined modules: AM=1, LM=1, SR=1

 Acoustic Model (with input parameter spec.):
 - AM00 "_default"
	hmmfilename=./models/hmmdefs_monof_mix16_gid.binhmm

 Language Model:
 - LM00 "_default"
	grammar #1:
	    dfa  = data/uemura_angry/wav/uemura_angry_085_for_julius.dfa
	    dict = data/uemura_angry/wav/uemura_angry_085_for_julius.dict

 Recognizer:
 - SR00 "_default" (AM00, LM00)

------------------------------------------------------------
Speech Analysis Module(s)

[MFCC01]  for [AM00 _default]

 Acoustic analysis condition:
	       parameter = MFCC_E_D_N_Z (25 dim. from 12 cepstrum + energy, abs energy supressed with CMN)
	sample frequency = 16000 Hz
	   sample period =  625  (1 = 100ns)
	     window size =  400 samples (25.0 ms)
	     frame shift =  160 samples (10.0 ms)
	    pre-emphasis = 0.97
	    # filterbank = 24
	   cepst. lifter = 22
	      raw energy = False
	energy normalize = False
	    delta window = 2 frames (20.0 ms) around
	     hi freq cut = OFF
	     lo freq cut = OFF
	 zero mean frame = OFF
	       use power = OFF
	             CVN = OFF
	            VTLN = OFF

    spectral subtraction = off

 cep. mean normalization = yes, with per-utterance self mean
 cep. var. normalization = no

	 base setup from = Julius defaults

------------------------------------------------------------
Acoustic Model(s)

[AM00 "_default"]

 HMM Info:
    43 models, 129 states, 129 mpdfs, 2064 Gaussians are defined
	      model type = context dependency handling OFF
      training parameter = MFCC_E_N_D_Z
	   vector length = 25
	number of stream = 1
	     stream info = [0-24]
	cov. matrix type = DIAGC
	   duration type = NULLD
	max mixture size = 16 Gaussians
     max length of model = 5 states
     logical base phones = 43
       model skip trans. = not exist, no multi-path handling

 AM Parameters:
        Gaussian pruning = none (full computation)  (-gprune)
    short pause HMM name = "sp" specified, "sp" applied (physical)  (-sp)
  cross-word CD on pass1 = handle by approx. (use average prob. of same LC)

------------------------------------------------------------
Language Model(s)

[LM00 "_default"] type=grammar

 DFA grammar info:
      4 nodes, 3 arcs, 3 terminal(category) symbols
      category-pair matrix: 16 bytes (448 bytes allocated)

 Vocabulary Info:
        vocabulary size  = 3 words, 103 models
        average word len = 34.3 models, 103.0 states
       maximum state num = 303 nodes per word
       transparent words = not exist
       words under class = not exist

 Parameters:
   found sp category IDs =

------------------------------------------------------------
Recognizer(s)

[SR00 "_default"]  AM00 "_default"  +  LM00 "_default"

 Lexicon tree:
	 total node num =    309
	  root node num =      3
	  leaf node num =      3

	(-penalty1) IW penalty1 = +0.0
	(-penalty2) IW penalty2 = +0.0
	(-cmalpha)CM alpha coef = 0.050000

 Search parameters: 
	    multi-path handling = no
	(-b) trellis beam width = 200 (-1 or not specified - guessed)
	(-bs)score pruning thres= disabled
	(-n)search candidate num= 1
	(-s)  search stack size = 500
	(-m)    search overflow = after 2000 hypothesis poped
	        2nd pass method = searching sentence, generating N-best
	(-b2)  pass2 beam width = 30
	(-lookuprange)lookup range= 5  (tm-5 <= t <tm+5)
	(-sb)2nd scan beamthres = 80.0 (in logscore)
	(-n)        search till = 1 candidates found
	(-output)    and output = 1 candidates out of above
	 output phoneme alignments
	 all possible words will be expanded in 2nd pass
	 build_wchmm2() used
	 lcdset limited by word-pair constraint
	short pause segmentation = off
	fall back on search fail = off, returns search failure

------------------------------------------------------------
Decoding algorithm:

	1st pass input processing = buffered, batch
	1st pass method = 1-best approx. generating indexed trellis
	output word confidence measure based on search-time scores

------------------------------------------------------------
FrontEnd:

 Input stream:
	             input type = waveform
	           input source = waveform file
	          input filelist = (none, get file name from stdin)
	          sampling freq. = 16000 Hz required
	         threaded A/D-in = supported, off
	   zero frames stripping = on
	         silence cutting = off
	    long-term DC removal = off
	    level scaling factor = 1.00 (disabled)
	      reject short input = off
	      reject  long input = off

----------------------- System Information end -----------------------

Notice for feature extraction (01),
	*************************************************************
	* Cepstral mean normalization for batch decoding:           *
	* per-utterance mean will be computed and applied.          *
	*************************************************************

------
### read waveform input
Stat: adin_file: input speechfile: data/uemura_angry/wav/uemura_angry_085_for_julius.wav
Warning: strip: sample 173-188 has zero value, stripped
Warning: strip: sample 190-211 has zero value, stripped
Warning: strip: sample 506-527 has zero value, stripped
Warning: strip: sample 1907-1924 has zero value, stripped
Warning: strip: sample 2454-2469 has zero value, stripped
Warning: strip: sample 3283-3299 has zero value, stripped
Warning: strip: sample 27579-27595 has zero value, stripped
Warning: strip: sample 27731-27754 has zero value, stripped
Warning: strip: sample 29083-29100 has zero value, stripped
Warning: strip: sample 29211-29227 has zero value, stripped
Warning: strip: sample 56109-56125 has zero value, stripped
Warning: strip: sample 56486-56506 has zero value, stripped
Warning: strip: sample 56519-56534 has zero value, stripped
Warning: strip: sample 59052-59068 has zero value, stripped
Warning: strip: sample 59786-59802 has zero value, stripped
Warning: strip: sample 108953-108972 has zero value, stripped
Warning: strip: sample 109708-109728 has zero value, stripped
Warning: strip: sample 150860-150876 has zero value, stripped
Warning: strip: sample 152578-152593 has zero value, stripped
Warning: strip: sample 152688-152703 has zero value, stripped
Warning: strip: sample 154602-154623 has zero value, stripped
Warning: strip: sample 154963-154978 has zero value, stripped
Warning: strip: sample 155164-155180 has zero value, stripped
Warning: strip: sample 156946-156961 has zero value, stripped
Warning: strip: sample 157047-157065 has zero value, stripped
Warning: strip: sample 157309-157325 has zero value, stripped
Warning: strip: sample 157664-157683 has zero value, stripped
Warning: strip: sample 159348-159364 has zero value, stripped
Warning: strip: sample 159789-159805 has zero value, stripped
Warning: strip: sample 161865-161883 has zero value, stripped
Warning: strip: sample 163019-163035 has zero value, stripped
Warning: strip: sample 163206-163222 has zero value, stripped
Warning: strip: sample 163970-163988 has zero value, stripped
Warning: strip: sample 165076-165092 has zero value, stripped
Warning: strip: sample 165488-165507 has zero value, stripped
Warning: strip: sample 165924-165940 has zero value, stripped
Warning: strip: sample 166788-166808 has zero value, stripped
Warning: strip: sample 167951-167967 has zero value, stripped
Warning: strip: sample 168216-168231 has zero value, stripped
Warning: strip: sample 168329-168345 has zero value, stripped
Warning: strip: sample 168703-168720 has zero value, stripped
Warning: strip: sample 168869-168897 has zero value, stripped
Warning: strip: sample 169086-169107 has zero value, stripped
Warning: strip: sample 169120-169138 has zero value, stripped
Warning: strip: sample 169323-169350 has zero value, stripped
Warning: strip: sample 169765-169784 has zero value, stripped
Warning: strip: sample 169864-169884 has zero value, stripped
Warning: strip: sample 170539-170554 has zero value, stripped
Warning: strip: sample 171715-171735 has zero value, stripped
Warning: strip: sample 172551-172566 has zero value, stripped
Warning: strip: sample 172712-172727 has zero value, stripped
Warning: strip: sample 173235-173252 has zero value, stripped
Warning: strip: sample 173260-173282 has zero value, stripped
Warning: strip: sample 173639-173654 has zero value, stripped
Warning: strip: sample 173675-173690 has zero value, stripped
Warning: strip: sample 174215-174232 has zero value, stripped
Warning: strip: sample 174608-174626 has zero value, stripped
Warning: strip: sample 174669-174694 has zero value, stripped
Warning: strip: sample 175769-175784 has zero value, stripped
Warning: strip: sample 176154-176171 has zero value, stripped
Warning: strip: sample 177167-177185 has zero value, stripped
Warning: strip: sample 177314-177331 has zero value, stripped
Warning: strip: sample 177389-177407 has zero value, stripped
Warning: strip: sample 177626-177645 has zero value, stripped
Warning: strip: sample 177722-177737 has zero value, stripped
Warning: strip: sample 178128-178144 has zero value, stripped
Warning: strip: sample 178480-178496 has zero value, stripped
Warning: strip: sample 178807-178822 has zero value, stripped
Warning: strip: sample 179373-179389 has zero value, stripped
Warning: strip: sample 179412-179427 has zero value, stripped
Warning: strip: sample 179895-179925 has zero value, stripped
Warning: strip: sample 180138-180153 has zero value, stripped
Warning: strip: sample 180255-180270 has zero value, stripped
Warning: strip: sample 180482-180503 has zero value, stripped
Warning: strip: sample 180600-180615 has zero value, stripped
Warning: strip: sample 180737-180755 has zero value, stripped
Warning: strip: sample 182032-182053 has zero value, stripped
Warning: strip: sample 182090-182106 has zero value, stripped
Warning: strip: sample 182800-182827 has zero value, stripped
Warning: strip: sample 183460-183475 has zero value, stripped
Warning: strip: sample 183543-183561 has zero value, stripped
Warning: strip: sample 183687-183702 has zero value, stripped
Warning: strip: sample 184033-184057 has zero value, stripped
Warning: strip: sample 184562-184577 has zero value, stripped
Warning: strip: sample 185129-185145 has zero value, stripped
Warning: strip: sample 185433-185453 has zero value, stripped
Warning: strip: sample 185623-185639 has zero value, stripped
Warning: strip: sample 185870-185889 has zero value, stripped
Warning: strip: sample 186228-186243 has zero value, stripped
Warning: strip: sample 186439-186462 has zero value, stripped
Warning: strip: sample 186709-186727 has zero value, stripped
Warning: strip: sample 186895-186916 has zero value, stripped
Warning: strip: sample 187124-187158 has zero value, stripped
Warning: strip: sample 187235-187253 has zero value, stripped
Warning: strip: sample 187475-187492 has zero value, stripped
Warning: strip: sample 187533-187551 has zero value, stripped
Warning: strip: sample 188094-188111 has zero value, stripped
Warning: strip: sample 188396-188418 has zero value, stripped
Warning: strip: sample 188745-188771 has zero value, stripped
Warning: strip: sample 189477-189492 has zero value, stripped
Warning: strip: sample 189762-189779 has zero value, stripped
Warning: strip: sample 190020-190042 has zero value, stripped
Warning: strip: sample 190160-190177 has zero value, stripped
Warning: strip: sample 191548-191566 has zero value, stripped
Warning: strip: sample 192456-192473 has zero value, stripped
Warning: strip: sample 193424-193440 has zero value, stripped
Warning: strip: sample 193622-193647 has zero value, stripped
Warning: strip: sample 193664-193681 has zero value, stripped
Warning: strip: sample 193719-193734 has zero value, stripped
Warning: strip: sample 193791-193807 has zero value, stripped
Warning: strip: sample 194483-194500 has zero value, stripped
Warning: strip: sample 194678-194694 has zero value, stripped
Warning: strip: sample 194949-194967 has zero value, stripped
Warning: strip: sample 195298-195313 has zero value, stripped
Warning: strip: sample 195319-195334 has zero value, stripped
Warning: strip: sample 196011-196026 has zero value, stripped
Warning: strip: sample 196053-196071 has zero value, stripped
Warning: strip: sample 196215-196230 has zero value, stripped
Warning: strip: sample 196245-196260 has zero value, stripped
Warning: strip: sample 196949-196971 has zero value, stripped
Warning: strip: sample 197727-197750 has zero value, stripped
Warning: strip: sample 198281-198312 has zero value, stripped
Warning: strip: sample 198464-198479 has zero value, stripped
Warning: strip: sample 198855-198876 has zero value, stripped
Warning: strip: sample 199031-199046 has zero value, stripped
Warning: strip: sample 199207-199223 has zero value, stripped
Warning: strip: sample 200165-200180 has zero value, stripped
Warning: strip: sample 200396-200411 has zero value, stripped
Warning: strip: sample 200997-201021 has zero value, stripped
Warning: strip: sample 201036-201053 has zero value, stripped
Warning: strip: sample 201251-201267 has zero value, stripped
Warning: strip: sample 201324-201342 has zero value, stripped
Warning: strip: sample 203017-203035 has zero value, stripped
Warning: strip: sample 203165-203181 has zero value, stripped
Warning: strip: sample 203566-203581 has zero value, stripped
Warning: strip: sample 204309-204330 has zero value, stripped
Warning: strip: sample 204420-204437 has zero value, stripped
Warning: strip: sample 204629-204650 has zero value, stripped
Warning: strip: sample 205116-205132 has zero value, stripped
Warning: strip: sample 205359-205375 has zero value, stripped
Warning: strip: sample 205424-205442 has zero value, stripped
Warning: strip: sample 205556-205576 has zero value, stripped
Warning: strip: sample 205712-205734 has zero value, stripped
Warning: strip: sample 206042-206057 has zero value, stripped
Warning: strip: sample 206113-206137 has zero value, stripped
Warning: strip: sample 206816-206838 has zero value, stripped
Warning: strip: sample 207312-207327 has zero value, stripped
Warning: strip: sample 208767-208783 has zero value, stripped
Warning: strip: sample 208985-209004 has zero value, stripped
Warning: strip: sample 209113-209136 has zero value, stripped
Warning: strip: sample 209323-209338 has zero value, stripped
Warning: strip: sample 210003-210019 has zero value, stripped
Warning: strip: sample 210282-210302 has zero value, stripped
Warning: strip: sample 210782-210799 has zero value, stripped
Warning: strip: sample 211372-211395 has zero value, stripped
Warning: strip: sample 211800-211818 has zero value, stripped
Warning: strip: sample 212609-212626 has zero value, stripped
Warning: strip: sample 212654-212670 has zero value, stripped
Warning: strip: sample 212971-212987 has zero value, stripped
Warning: strip: sample 213263-213282 has zero value, stripped
Warning: strip: sample 213391-213408 has zero value, stripped
Warning: strip: sample 213703-213726 has zero value, stripped
Warning: strip: sample 214653-214668 has zero value, stripped
Warning: strip: sample 215009-215035 has zero value, stripped
Warning: strip: sample 215325-215341 has zero value, stripped
Warning: strip: sample 215989-216016 has zero value, stripped
Warning: strip: sample 216461-216482 has zero value, stripped
Warning: strip: sample 216723-216738 has zero value, stripped
Warning: strip: sample 216774-216789 has zero value, stripped
Warning: strip: sample 216960-216978 has zero value, stripped
Warning: strip: sample 217409-217424 has zero value, stripped
Warning: strip: sample 217581-217596 has zero value, stripped
Warning: strip: sample 217990-218005 has zero value, stripped
Warning: strip: sample 218071-218088 has zero value, stripped
Warning: strip: sample 218428-218445 has zero value, stripped
Warning: strip: sample 219033-219052 has zero value, stripped
Warning: strip: sample 220039-220055 has zero value, stripped
Warning: strip: sample 220970-220986 has zero value, stripped
Warning: strip: sample 221641-221656 has zero value, stripped
Warning: strip: sample 221833-221855 has zero value, stripped
Warning: strip: sample 222089-222104 has zero value, stripped
Warning: strip: sample 222606-222627 has zero value, stripped
Warning: strip: sample 223846-223862 has zero value, stripped
Warning: strip: sample 224457-224473 has zero value, stripped
Warning: strip: sample 224516-224533 has zero value, stripped
Warning: strip: sample 224576-224593 has zero value, stripped
Warning: strip: sample 225401-225417 has zero value, stripped
Warning: strip: sample 225729-225746 has zero value, stripped
Warning: strip: sample 226134-226155 has zero value, stripped
Warning: strip: sample 226821-226838 has zero value, stripped
Warning: strip: sample 227493-227508 has zero value, stripped
Warning: strip: sample 227829-227847 has zero value, stripped
Warning: strip: sample 228023-228038 has zero value, stripped
Warning: strip: sample 228725-228744 has zero value, stripped
Warning: strip: sample 229122-229141 has zero value, stripped
Warning: strip: sample 229888-229906 has zero value, stripped
Warning: strip: sample 230056-230071 has zero value, stripped
Warning: strip: sample 230169-230185 has zero value, stripped
Warning: strip: sample 230784-230802 has zero value, stripped
Warning: strip: sample 231226-231258 has zero value, stripped
Warning: strip: sample 231336-231351 has zero value, stripped
Warning: strip: sample 232422-232438 has zero value, stripped
Warning: strip: sample 233422-233437 has zero value, stripped
Warning: strip: sample 233998-234016 has zero value, stripped
STAT: 231487 samples (14.47 sec.)
STAT: ### speech analysis (waveform -> MFCC)
### Recognition: 1st pass (LR beam)
pass1_best: w_0 w_1 w_2
pass1_best_wordseq: 0 1 2
pass1_best_phonemeseq: silB | i h a i n o h o t o N d o w a s u w e: d e N n i sh i k a i g a N n o b u: hy u: s u r e: N ch i h o: n o k o j i m a n i a r u gy o s o N f u y a r u b a q k a sh u: h e N n o u m i n i s a N k o ts u s a r e t a | silE
pass1_best_score: -36624.250000
### Recognition: 2nd pass (RL heuristic best-first)
STAT: 00 _default: 3 generated, 3 pushed, 4 nodes popped in 1445
ALIGN: === phoneme alignment begin ===
sentence1: w_0 w_1 w_2
wseq1: 0 1 2
phseq1: silB | i h a i n o h o t o N d o w a s u w e: d e N n i sh i k a i g a N n o b u: hy u: s u r e: N ch i h o: n o k o j i m a n i a r u gy o s o N f u y a r u b a q k a sh u: h e N n o u m i n i s a N k o ts u s a r e t a | silE
cmscore1: 1.000 1.000 1.000
score1: -36624.398438
=== begin forced alignment ===
-- phoneme alignment --
 id: from  to    n_score    unit
 ----------------------------------------
[   0   26]  -22.194923  silB
[  27   39]  -32.246033  i
[  40   49]  -28.716461  h
[  50   56]  -24.713728  a
[  57   60]  -26.483978  i
[  61   67]  -31.852573  n
[  68   73]  -28.805542  o
[  74   80]  -28.073086  h
[  81   89]  -30.548367  o
[  90   94]  -33.104103  t
[  95  100]  -28.303711  o
[ 101  106]  -29.652832  N
[ 107  110]  -30.447021  d
[ 111  119]  -28.227865  o
[ 120  122]  -37.047199  w
[ 123  135]  -32.278282  a
[ 136  198]  -23.931486  s
[ 199  211]  -30.115459  u
[ 212  214]  -30.269693  w
[ 215  226]  -26.896118  e:
[ 227  229]  -28.036295  d
[ 230  238]  -25.826334  e
[ 239  244]  -30.074869  N
[ 245  249]  -31.378321  n
[ 250  260]  -30.185591  i
[ 261  266]  -30.343994  sh
[ 267  269]  -32.778156  i
[ 270  275]  -32.716633  k
[ 276  283]  -24.922424  a
[ 284  287]  -31.486816  i
[ 288  293]  -32.553955  g
[ 294  301]  -27.414368  a
[ 302  308]  -29.814314  N
[ 309  311]  -33.463867  n
[ 312  317]  -30.029297  o
[ 318  378]  -24.152264  b
[ 379  390]  -29.945395  u:
[ 391  405]  -31.568359  hy
[ 406  420]  -29.336979  u:
[ 421  425]  -30.605663  s
[ 426  431]  -33.712566  u
[ 432  435]  -28.873535  r
[ 436  447]  -25.147623  e:
[ 448  457]  -29.840332  N
[ 458  464]  -29.537527  ch
[ 465  470]  -35.603840  i
[ 471  476]  -31.526041  h
[ 477  487]  -30.486151  o:
[ 488  494]  -32.389370  n
[ 495  502]  -30.694946  o
[ 503  508]  -32.149414  k
[ 509  512]  -41.259033  o
[ 513  521]  -30.470053  j
[ 522  524]  -29.347330  i
[ 525  532]  -29.916138  m
[ 533  536]  -26.092529  a
[ 537  543]  -28.814453  n
[ 544  546]  -28.797201  i
[ 547  555]  -28.304796  a
[ 556  559]  -30.071533  r
[ 560  567]  -29.983154  u
[ 568  609]  -28.219982  gy
[ 610  615]  -31.388346  o
[ 616  627]  -31.155600  s
[ 628  635]  -25.619873  o
[ 636  643]  -27.204834  N
[ 644  694]  -25.954733  f
[ 695  697]  -38.274738  u
[ 698  703]  -30.187174  y
[ 704  710]  -29.449219  a
[ 711  716]  -29.652344  r
[ 717  719]  -30.552084  u
[ 720  729]  -30.459961  b
[ 730  738]  -31.260416  a
[ 739  743]  -28.492579  q
[ 744  747]  -30.823242  k
[ 748  750]  -29.399740  a
[ 751  763]  -28.283354  sh
[ 764  775]  -29.808594  u:
[ 776  778]  -32.328125  h
[ 779  781]  -33.157551  e
[ 782  792]  -29.673473  N
[ 793  796]  -30.041504  n
[ 797  804]  -26.273682  o
[ 805  813]  -31.083549  u
[ 814  816]  -37.404949  m
[ 817  824]  -34.638672  i
[ 825  830]  -33.000000  n
[ 831  841]  -31.200285  i
[ 842  844]  -29.804688  s
[ 845  855]  -38.112747  a
[ 856  864]  -31.394096  N
[ 865  868]  -30.380859  k
[ 869  875]  -30.270926  o
[ 876  878]  -31.780600  ts
[ 879  881]  -31.840494  u
[ 882  889]  -26.746338  s
[ 890  896]  -34.977680  a
[ 897  900]  -35.119141  r
[ 901  906]  -35.569012  e
[ 907  922]  -32.220581  t
[ 923  936]  -30.633511  a
[ 937 1444]  -18.661352  silE
re-computed AM score: -36624.250000
=== end forced alignment ===


------
### read waveform input
