STAT: jconf successfully finalized
STAT: *** loading AM00 _default
Stat: init_phmm: Reading in HMM definition
Stat: read_binhmm: binary format HMM definition
Stat: read_binhmm: this HMM does not need multipath handling
Stat: init_phmm: defined HMMs:    43
Stat: init_phmm: logical names:    43
Stat: init_phmm: base phones:    43 used in logical
Stat: init_phmm: finished reading HMM definitions
STAT: *** AM00 _default loaded
STAT: *** loading LM00 _default
STAT: reading [data/uemura_angry/wav/uemura_angry_073_for_julius.dfa] and [data/uemura_angry/wav/uemura_angry_073_for_julius.dict]...
Stat: init_voca: read 3 words
STAT: done
STAT: Gram #0 uemura_angry_073_for_julius registered
STAT: Gram #0 uemura_angry_073_for_julius: new grammar loaded, now mash it up for recognition
STAT: Gram #0 uemura_angry_073_for_julius: extracting category-pair constraint for the 1st pass
STAT: Gram #0 uemura_angry_073_for_julius: installed
STAT: Gram #0 uemura_angry_073_for_julius: turn on active
STAT: grammar update completed
STAT: *** LM00 _default loaded
STAT: ------
STAT: All models are ready, go for final fusion
STAT: [1] create MFCC extraction instance(s)
STAT: *** create MFCC calculation modules from AM
STAT: AM 0 _default: create a new module MFCC01
STAT: 1 MFCC modules created
STAT: [2] create recognition processing instance(s) with AM and LM
STAT: composing recognizer instance SR00 _default (AM00 _default, LM00 _default)
STAT: Building HMM lexicon tree
STAT: lexicon size: 180+0=180
STAT: coordination check passed
STAT: multi-gram: beam width set to 180 (guess) by lexicon change
STAT: wchmm (re)build completed
STAT: SR00 _default composed
STAT: [3] initialize for acoustic HMM calculation
Stat: outprob_init: state-level mixture PDFs, use calc_mix()
Stat: addlog: generating addlog table (size = 1953 kB)
Stat: addlog: addlog table generated
STAT: [4] prepare MFCC storage(s)
STAT: All init successfully done

STAT: ###### initialize input device
----------------------- System Information begin ---------------------
JuliusLib rev.4.4.2.1 (fast)

Engine specification:
 -  Base setup   : fast
 -  Supported LM : DFA, N-gram, Word
 -  Extension    :
 -  Compiled by  : gcc -g -O2
Library configuration: version 4.4.2.1
 - Audio input
    primary A/D-in driver   : coreaudio (MacOSX CoreAudio)
    available drivers       :
    wavefile formats        : RAW and WAV only
    max. length of an input : 320000 samples, 150 words
 - Language Model
    class N-gram support    : yes
    MBR weight support      : yes
    word id unit            : short (2 bytes)
 - Acoustic Model
    multi-path treatment    : autodetect
 - External library
    file decompression by   : zlib library
 - Process hangling
    fork on adinnet input   : no
 - built-in SIMD instruction set for DNN
    SSE AVX FMA
    FMA is available maximum on this cpu, use it


------------------------------------------------------------
Configuration of Modules

 Number of defined modules: AM=1, LM=1, SR=1

 Acoustic Model (with input parameter spec.):
 - AM00 "_default"
	hmmfilename=./models/hmmdefs_monof_mix16_gid.binhmm

 Language Model:
 - LM00 "_default"
	grammar #1:
	    dfa  = data/uemura_angry/wav/uemura_angry_073_for_julius.dfa
	    dict = data/uemura_angry/wav/uemura_angry_073_for_julius.dict

 Recognizer:
 - SR00 "_default" (AM00, LM00)

------------------------------------------------------------
Speech Analysis Module(s)

[MFCC01]  for [AM00 _default]

 Acoustic analysis condition:
	       parameter = MFCC_E_D_N_Z (25 dim. from 12 cepstrum + energy, abs energy supressed with CMN)
	sample frequency = 16000 Hz
	   sample period =  625  (1 = 100ns)
	     window size =  400 samples (25.0 ms)
	     frame shift =  160 samples (10.0 ms)
	    pre-emphasis = 0.97
	    # filterbank = 24
	   cepst. lifter = 22
	      raw energy = False
	energy normalize = False
	    delta window = 2 frames (20.0 ms) around
	     hi freq cut = OFF
	     lo freq cut = OFF
	 zero mean frame = OFF
	       use power = OFF
	             CVN = OFF
	            VTLN = OFF

    spectral subtraction = off

 cep. mean normalization = yes, with per-utterance self mean
 cep. var. normalization = no

	 base setup from = Julius defaults

------------------------------------------------------------
Acoustic Model(s)

[AM00 "_default"]

 HMM Info:
    43 models, 129 states, 129 mpdfs, 2064 Gaussians are defined
	      model type = context dependency handling OFF
      training parameter = MFCC_E_N_D_Z
	   vector length = 25
	number of stream = 1
	     stream info = [0-24]
	cov. matrix type = DIAGC
	   duration type = NULLD
	max mixture size = 16 Gaussians
     max length of model = 5 states
     logical base phones = 43
       model skip trans. = not exist, no multi-path handling

 AM Parameters:
        Gaussian pruning = none (full computation)  (-gprune)
    short pause HMM name = "sp" specified, "sp" applied (physical)  (-sp)
  cross-word CD on pass1 = handle by approx. (use average prob. of same LC)

------------------------------------------------------------
Language Model(s)

[LM00 "_default"] type=grammar

 DFA grammar info:
      4 nodes, 3 arcs, 3 terminal(category) symbols
      category-pair matrix: 16 bytes (448 bytes allocated)

 Vocabulary Info:
        vocabulary size  = 3 words, 60 models
        average word len = 20.0 models, 60.0 states
       maximum state num = 174 nodes per word
       transparent words = not exist
       words under class = not exist

 Parameters:
   found sp category IDs =

------------------------------------------------------------
Recognizer(s)

[SR00 "_default"]  AM00 "_default"  +  LM00 "_default"

 Lexicon tree:
	 total node num =    180
	  root node num =      3
	  leaf node num =      3

	(-penalty1) IW penalty1 = +0.0
	(-penalty2) IW penalty2 = +0.0
	(-cmalpha)CM alpha coef = 0.050000

 Search parameters: 
	    multi-path handling = no
	(-b) trellis beam width = 180 (-1 or not specified - guessed)
	(-bs)score pruning thres= disabled
	(-n)search candidate num= 1
	(-s)  search stack size = 500
	(-m)    search overflow = after 2000 hypothesis poped
	        2nd pass method = searching sentence, generating N-best
	(-b2)  pass2 beam width = 30
	(-lookuprange)lookup range= 5  (tm-5 <= t <tm+5)
	(-sb)2nd scan beamthres = 80.0 (in logscore)
	(-n)        search till = 1 candidates found
	(-output)    and output = 1 candidates out of above
	 output phoneme alignments
	 all possible words will be expanded in 2nd pass
	 build_wchmm2() used
	 lcdset limited by word-pair constraint
	short pause segmentation = off
	fall back on search fail = off, returns search failure

------------------------------------------------------------
Decoding algorithm:

	1st pass input processing = buffered, batch
	1st pass method = 1-best approx. generating indexed trellis
	output word confidence measure based on search-time scores

------------------------------------------------------------
FrontEnd:

 Input stream:
	             input type = waveform
	           input source = waveform file
	          input filelist = (none, get file name from stdin)
	          sampling freq. = 16000 Hz required
	         threaded A/D-in = supported, off
	   zero frames stripping = on
	         silence cutting = off
	    long-term DC removal = off
	    level scaling factor = 1.00 (disabled)
	      reject short input = off
	      reject  long input = off

----------------------- System Information end -----------------------

Notice for feature extraction (01),
	*************************************************************
	* Cepstral mean normalization for batch decoding:           *
	* per-utterance mean will be computed and applied.          *
	*************************************************************

------
### read waveform input
Stat: adin_file: input speechfile: data/uemura_angry/wav/uemura_angry_073_for_julius.wav
Warning: strip: sample 686-702 has zero value, stripped
Warning: strip: sample 1127-1142 has zero value, stripped
Warning: strip: sample 1420-1439 has zero value, stripped
Warning: strip: sample 2373-2391 has zero value, stripped
Warning: strip: sample 3050-3074 has zero value, stripped
Warning: strip: sample 84396-84415 has zero value, stripped
Warning: strip: sample 85097-85114 has zero value, stripped
Warning: strip: sample 86721-86741 has zero value, stripped
Warning: strip: sample 87436-87451 has zero value, stripped
Warning: strip: sample 87537-87554 has zero value, stripped
Warning: strip: sample 87808-87824 has zero value, stripped
Warning: strip: sample 88203-88227 has zero value, stripped
Warning: strip: sample 89268-89284 has zero value, stripped
Warning: strip: sample 89324-89342 has zero value, stripped
Warning: strip: sample 89571-89586 has zero value, stripped
Warning: strip: sample 90514-90532 has zero value, stripped
Warning: strip: sample 91008-91023 has zero value, stripped
Warning: strip: sample 91306-91321 has zero value, stripped
Warning: strip: sample 92108-92126 has zero value, stripped
Warning: strip: sample 92408-92427 has zero value, stripped
Warning: strip: sample 92976-92992 has zero value, stripped
Warning: strip: sample 93135-93150 has zero value, stripped
Warning: strip: sample 95487-95509 has zero value, stripped
Warning: strip: sample 100700-100719 has zero value, stripped
Warning: strip: sample 100917-100932 has zero value, stripped
Warning: strip: sample 103104-103123 has zero value, stripped
Warning: strip: sample 103349-103372 has zero value, stripped
Warning: strip: sample 104551-104572 has zero value, stripped
Warning: strip: sample 105471-105491 has zero value, stripped
Warning: strip: sample 106286-106301 has zero value, stripped
Warning: strip: sample 107539-107554 has zero value, stripped
Warning: strip: sample 109191-109207 has zero value, stripped
Warning: strip: sample 109447-109462 has zero value, stripped
Warning: strip: sample 109529-109544 has zero value, stripped
Warning: strip: sample 109699-109717 has zero value, stripped
Warning: strip: sample 110736-110751 has zero value, stripped
Warning: strip: sample 111056-111075 has zero value, stripped
Warning: strip: sample 111770-111786 has zero value, stripped
Warning: strip: sample 111933-111952 has zero value, stripped
Warning: strip: sample 112523-112541 has zero value, stripped
Warning: strip: sample 113537-113556 has zero value, stripped
Warning: strip: sample 113843-113868 has zero value, stripped
Warning: strip: sample 113907-113924 has zero value, stripped
Warning: strip: sample 114491-114506 has zero value, stripped
Warning: strip: sample 115413-115436 has zero value, stripped
Warning: strip: sample 116025-116040 has zero value, stripped
Warning: strip: sample 121245-121260 has zero value, stripped
Warning: strip: sample 126304-126321 has zero value, stripped
Warning: strip: sample 127691-127706 has zero value, stripped
Warning: strip: sample 128492-128508 has zero value, stripped
Warning: strip: sample 129416-129436 has zero value, stripped
Warning: strip: sample 129677-129692 has zero value, stripped
Warning: strip: sample 129752-129770 has zero value, stripped
Warning: strip: sample 130217-130242 has zero value, stripped
Warning: strip: sample 130448-130465 has zero value, stripped
Warning: strip: sample 131971-131986 has zero value, stripped
Warning: strip: sample 132981-132996 has zero value, stripped
Warning: strip: sample 133000-133015 has zero value, stripped
Warning: strip: sample 134865-134887 has zero value, stripped
Warning: strip: sample 135139-135159 has zero value, stripped
Warning: strip: sample 135491-135506 has zero value, stripped
Warning: strip: sample 135965-135982 has zero value, stripped
Warning: strip: sample 136703-136732 has zero value, stripped
Warning: strip: sample 137316-137333 has zero value, stripped
Warning: strip: sample 137722-137738 has zero value, stripped
Warning: strip: sample 138345-138361 has zero value, stripped
STAT: 137640 samples (8.60 sec.)
STAT: ### speech analysis (waveform -> MFCC)
### Recognition: 1st pass (LR beam)
pass1_best: w_0 w_1 w_2
pass1_best_wordseq: 0 1 2
pass1_best_phonemeseq: silB | j o: i N g i: N t o sh i t e b a: N w e r u w a k a r i f o r u n i a sh u: n o r e N p o: k a ny u: n i s a N s e i sh i t a | silE
pass1_best_score: -21143.101562
### Recognition: 2nd pass (RL heuristic best-first)
STAT: 00 _default: 3 generated, 3 pushed, 4 nodes popped in 858
ALIGN: === phoneme alignment begin ===
sentence1: w_0 w_1 w_2
wseq1: 0 1 2
phseq1: silB | j o: i N g i: N t o sh i t e b a: N w e r u w a k a r i f o r u n i a sh u: n o r e N p o: k a ny u: n i s a N s e i sh i t a | silE
cmscore1: 1.000 1.000 1.000
score1: -21143.197266
=== begin forced alignment ===
-- phoneme alignment --
 id: from  to    n_score    unit
 ----------------------------------------
[   0   22]  -20.380884  silB
[  23   33]  -27.106133  j
[  34   52]  -29.071081  o:
[  53   65]  -27.620352  i
[  66   74]  -28.366537  N
[  75   79]  -34.098705  g
[  80   94]  -25.641584  i:
[  95  102]  -29.225922  N
[ 103  106]  -29.330444  t
[ 107  109]  -25.428305  o
[ 110  117]  -26.138855  sh
[ 118  120]  -30.105551  i
[ 121  124]  -27.527954  t
[ 125  137]  -26.331469  e
[ 138  151]  -28.448120  b
[ 152  170]  -28.280390  a:
[ 171  178]  -27.787598  N
[ 179  181]  -33.326824  w
[ 182  188]  -27.771414  e
[ 189  193]  -28.543751  r
[ 194  198]  -29.417089  u
[ 199  201]  -24.479492  w
[ 202  216]  -29.704590  a
[ 217  260]  -24.107521  k
[ 261  265]  -30.767872  a
[ 266  271]  -28.833496  r
[ 272  280]  -28.454861  i
[ 281  283]  -33.274414  f
[ 284  289]  -29.423990  o
[ 290  294]  -32.291603  r
[ 295  298]  -31.339233  u
[ 299  308]  -27.795166  n
[ 309  314]  -26.535645  i
[ 315  321]  -28.275530  a
[ 322  333]  -29.701254  sh
[ 334  343]  -30.427734  u:
[ 344  348]  -29.142384  n
[ 349  352]  -26.843994  o
[ 353  359]  -30.061941  r
[ 360  366]  -25.111746  e
[ 367  379]  -29.809570  N
[ 380  383]  -31.558105  p
[ 384  396]  -28.946514  o:
[ 397  403]  -30.704519  k
[ 404  408]  -30.219727  a
[ 409  419]  -29.825195  ny
[ 420  423]  -28.982910  u:
[ 424  432]  -30.508354  n
[ 433  442]  -29.287989  i
[ 443  447]  -29.738087  s
[ 448  453]  -32.705730  a
[ 454  456]  -31.900717  N
[ 457  469]  -27.104116  s
[ 470  476]  -26.545620  e
[ 477  479]  -32.489258  i
[ 480  485]  -26.101400  sh
[ 486  488]  -29.056314  i
[ 489  491]  -28.245117  t
[ 492  508]  -29.476791  a
[ 509  857]  -19.766783  silE
re-computed AM score: -21143.101562
=== end forced alignment ===


------
### read waveform input
