STAT: jconf successfully finalized
STAT: *** loading AM00 _default
Stat: init_phmm: Reading in HMM definition
Stat: read_binhmm: binary format HMM definition
Stat: read_binhmm: this HMM does not need multipath handling
Stat: init_phmm: defined HMMs:    43
Stat: init_phmm: logical names:    43
Stat: init_phmm: base phones:    43 used in logical
Stat: init_phmm: finished reading HMM definitions
STAT: *** AM00 _default loaded
STAT: *** loading LM00 _default
STAT: reading [data/uemura_happy/wav/uemura_happy_079_for_julius.dfa] and [data/uemura_happy/wav/uemura_happy_079_for_julius.dict]...
Stat: init_voca: read 3 words
STAT: done
STAT: Gram #0 uemura_happy_079_for_julius registered
STAT: Gram #0 uemura_happy_079_for_julius: new grammar loaded, now mash it up for recognition
STAT: Gram #0 uemura_happy_079_for_julius: extracting category-pair constraint for the 1st pass
STAT: Gram #0 uemura_happy_079_for_julius: installed
STAT: Gram #0 uemura_happy_079_for_julius: turn on active
STAT: grammar update completed
STAT: *** LM00 _default loaded
STAT: ------
STAT: All models are ready, go for final fusion
STAT: [1] create MFCC extraction instance(s)
STAT: *** create MFCC calculation modules from AM
STAT: AM 0 _default: create a new module MFCC01
STAT: 1 MFCC modules created
STAT: [2] create recognition processing instance(s) with AM and LM
STAT: composing recognizer instance SR00 _default (AM00 _default, LM00 _default)
STAT: Building HMM lexicon tree
STAT: lexicon size: 237+0=237
STAT: coordination check passed
STAT: multi-gram: beam width set to 200 (guess) by lexicon change
STAT: wchmm (re)build completed
STAT: SR00 _default composed
STAT: [3] initialize for acoustic HMM calculation
Stat: outprob_init: state-level mixture PDFs, use calc_mix()
Stat: addlog: generating addlog table (size = 1953 kB)
Stat: addlog: addlog table generated
STAT: [4] prepare MFCC storage(s)
STAT: All init successfully done

STAT: ###### initialize input device
----------------------- System Information begin ---------------------
JuliusLib rev.4.4.2.1 (fast)

Engine specification:
 -  Base setup   : fast
 -  Supported LM : DFA, N-gram, Word
 -  Extension    :
 -  Compiled by  : gcc -g -O2
Library configuration: version 4.4.2.1
 - Audio input
    primary A/D-in driver   : coreaudio (MacOSX CoreAudio)
    available drivers       :
    wavefile formats        : RAW and WAV only
    max. length of an input : 320000 samples, 150 words
 - Language Model
    class N-gram support    : yes
    MBR weight support      : yes
    word id unit            : short (2 bytes)
 - Acoustic Model
    multi-path treatment    : autodetect
 - External library
    file decompression by   : zlib library
 - Process hangling
    fork on adinnet input   : no
 - built-in SIMD instruction set for DNN
    SSE AVX FMA
    FMA is available maximum on this cpu, use it


------------------------------------------------------------
Configuration of Modules

 Number of defined modules: AM=1, LM=1, SR=1

 Acoustic Model (with input parameter spec.):
 - AM00 "_default"
	hmmfilename=./models/hmmdefs_monof_mix16_gid.binhmm

 Language Model:
 - LM00 "_default"
	grammar #1:
	    dfa  = data/uemura_happy/wav/uemura_happy_079_for_julius.dfa
	    dict = data/uemura_happy/wav/uemura_happy_079_for_julius.dict

 Recognizer:
 - SR00 "_default" (AM00, LM00)

------------------------------------------------------------
Speech Analysis Module(s)

[MFCC01]  for [AM00 _default]

 Acoustic analysis condition:
	       parameter = MFCC_E_D_N_Z (25 dim. from 12 cepstrum + energy, abs energy supressed with CMN)
	sample frequency = 16000 Hz
	   sample period =  625  (1 = 100ns)
	     window size =  400 samples (25.0 ms)
	     frame shift =  160 samples (10.0 ms)
	    pre-emphasis = 0.97
	    # filterbank = 24
	   cepst. lifter = 22
	      raw energy = False
	energy normalize = False
	    delta window = 2 frames (20.0 ms) around
	     hi freq cut = OFF
	     lo freq cut = OFF
	 zero mean frame = OFF
	       use power = OFF
	             CVN = OFF
	            VTLN = OFF

    spectral subtraction = off

 cep. mean normalization = yes, with per-utterance self mean
 cep. var. normalization = no

	 base setup from = Julius defaults

------------------------------------------------------------
Acoustic Model(s)

[AM00 "_default"]

 HMM Info:
    43 models, 129 states, 129 mpdfs, 2064 Gaussians are defined
	      model type = context dependency handling OFF
      training parameter = MFCC_E_N_D_Z
	   vector length = 25
	number of stream = 1
	     stream info = [0-24]
	cov. matrix type = DIAGC
	   duration type = NULLD
	max mixture size = 16 Gaussians
     max length of model = 5 states
     logical base phones = 43
       model skip trans. = not exist, no multi-path handling

 AM Parameters:
        Gaussian pruning = none (full computation)  (-gprune)
    short pause HMM name = "sp" specified, "sp" applied (physical)  (-sp)
  cross-word CD on pass1 = handle by approx. (use average prob. of same LC)

------------------------------------------------------------
Language Model(s)

[LM00 "_default"] type=grammar

 DFA grammar info:
      4 nodes, 3 arcs, 3 terminal(category) symbols
      category-pair matrix: 16 bytes (448 bytes allocated)

 Vocabulary Info:
        vocabulary size  = 3 words, 79 models
        average word len = 26.3 models, 79.0 states
       maximum state num = 231 nodes per word
       transparent words = not exist
       words under class = not exist

 Parameters:
   found sp category IDs =

------------------------------------------------------------
Recognizer(s)

[SR00 "_default"]  AM00 "_default"  +  LM00 "_default"

 Lexicon tree:
	 total node num =    237
	  root node num =      3
	  leaf node num =      3

	(-penalty1) IW penalty1 = +0.0
	(-penalty2) IW penalty2 = +0.0
	(-cmalpha)CM alpha coef = 0.050000

 Search parameters: 
	    multi-path handling = no
	(-b) trellis beam width = 200 (-1 or not specified - guessed)
	(-bs)score pruning thres= disabled
	(-n)search candidate num= 1
	(-s)  search stack size = 500
	(-m)    search overflow = after 2000 hypothesis poped
	        2nd pass method = searching sentence, generating N-best
	(-b2)  pass2 beam width = 30
	(-lookuprange)lookup range= 5  (tm-5 <= t <tm+5)
	(-sb)2nd scan beamthres = 80.0 (in logscore)
	(-n)        search till = 1 candidates found
	(-output)    and output = 1 candidates out of above
	 output phoneme alignments
	 all possible words will be expanded in 2nd pass
	 build_wchmm2() used
	 lcdset limited by word-pair constraint
	short pause segmentation = off
	fall back on search fail = off, returns search failure

------------------------------------------------------------
Decoding algorithm:

	1st pass input processing = buffered, batch
	1st pass method = 1-best approx. generating indexed trellis
	output word confidence measure based on search-time scores

------------------------------------------------------------
FrontEnd:

 Input stream:
	             input type = waveform
	           input source = waveform file
	          input filelist = (none, get file name from stdin)
	          sampling freq. = 16000 Hz required
	         threaded A/D-in = supported, off
	   zero frames stripping = on
	         silence cutting = off
	    long-term DC removal = off
	    level scaling factor = 1.00 (disabled)
	      reject short input = off
	      reject  long input = off

----------------------- System Information end -----------------------

Notice for feature extraction (01),
	*************************************************************
	* Cepstral mean normalization for batch decoding:           *
	* per-utterance mean will be computed and applied.          *
	*************************************************************

------
### read waveform input
Stat: adin_file: input speechfile: data/uemura_happy/wav/uemura_happy_079_for_julius.wav
Warning: strip: sample 1255-1271 has zero value, stripped
Warning: strip: sample 2907-2923 has zero value, stripped
Warning: strip: sample 3767-3784 has zero value, stripped
Warning: strip: sample 108920-108941 has zero value, stripped
Warning: strip: sample 109818-109838 has zero value, stripped
Warning: strip: sample 109974-109992 has zero value, stripped
Warning: strip: sample 110097-110112 has zero value, stripped
Warning: strip: sample 110371-110387 has zero value, stripped
Warning: strip: sample 110905-110920 has zero value, stripped
Warning: strip: sample 111188-111206 has zero value, stripped
Warning: strip: sample 111456-111471 has zero value, stripped
Warning: strip: sample 113045-113065 has zero value, stripped
Warning: strip: sample 114884-114900 has zero value, stripped
Warning: strip: sample 115654-115670 has zero value, stripped
Warning: strip: sample 115945-115962 has zero value, stripped
Warning: strip: sample 116343-116358 has zero value, stripped
Warning: strip: sample 116432-116447 has zero value, stripped
Warning: strip: sample 117216-117234 has zero value, stripped
Warning: strip: sample 117333-117349 has zero value, stripped
Warning: strip: sample 119946-119964 has zero value, stripped
Warning: strip: sample 120104-120119 has zero value, stripped
Warning: strip: sample 120528-120546 has zero value, stripped
Warning: strip: sample 122874-122889 has zero value, stripped
Warning: strip: sample 122914-122931 has zero value, stripped
Warning: strip: sample 123271-123292 has zero value, stripped
Warning: strip: sample 123571-123590 has zero value, stripped
Warning: strip: sample 124982-124998 has zero value, stripped
Warning: strip: sample 125799-125816 has zero value, stripped
Warning: strip: sample 126385-126400 has zero value, stripped
Warning: strip: sample 128182-128198 has zero value, stripped
Warning: strip: sample 128496-128514 has zero value, stripped
STAT: 140724 samples (8.80 sec.)
STAT: ### speech analysis (waveform -> MFCC)
### Recognition: 1st pass (LR beam)
pass1_best: w_0 w_1 w_2
pass1_best_wordseq: 0 1 2
pass1_best_phonemeseq: silB | t a i y o: gy o gy o: o: n a: n o n a k a b e k e N k i ch i n o i n o ch i o u k e t e p u r o y a ky u: ky u: d a N n o t a i y o: h o e: r u z u n i k a k a w a r u | silE
pass1_best_score: -26534.355469
### Recognition: 2nd pass (RL heuristic best-first)
STAT: 00 _default: 3 generated, 3 pushed, 4 nodes popped in 878
ALIGN: === phoneme alignment begin ===
sentence1: w_0 w_1 w_2
wseq1: 0 1 2
phseq1: silB | t a i y o: gy o gy o: o: n a: n o n a k a b e k e N k i ch i n o i n o ch i o u k e t e p u r o y a ky u: ky u: d a N n o t a i y o: h o e: r u z u n i k a k a w a r u | silE
cmscore1: 1.000 1.000 1.000
score1: -26534.396484
=== begin forced alignment ===
-- phoneme alignment --
 id: from  to    n_score    unit
 ----------------------------------------
[   0   25]  -22.260500  silB
[  26   28]  -34.805950  t
[  29   40]  -29.768997  a
[  41   50]  -30.462000  i
[  51   57]  -35.913399  y
[  58   66]  -31.574869  o:
[  67   90]  -36.216248  gy
[  91   93]  -33.478191  o
[  94   96]  -38.166828  gy
[  97  100]  -32.669983  o:
[ 101  106]  -33.162231  o:
[ 107  109]  -33.103596  n
[ 110  128]  -30.171167  a:
[ 129  152]  -32.924419  n
[ 153  156]  -28.199341  o
[ 157  165]  -36.544327  n
[ 166  173]  -30.742493  a
[ 174  180]  -34.407085  k
[ 181  185]  -38.784374  a
[ 186  189]  -38.409424  b
[ 190  199]  -31.884912  e
[ 200  205]  -31.393555  k
[ 206  211]  -29.994873  e
[ 212  222]  -34.719948  N
[ 223  226]  -30.109253  k
[ 227  230]  -29.859741  i
[ 231  236]  -32.134846  ch
[ 237  241]  -33.569237  i
[ 242  245]  -34.964233  n
[ 246  248]  -35.430500  o
[ 249  251]  -41.671711  i
[ 252  258]  -31.944407  n
[ 259  261]  -34.402668  o
[ 262  264]  -33.081379  ch
[ 265  272]  -32.257080  i
[ 273  288]  -32.919739  o
[ 289  294]  -37.269855  u
[ 295  300]  -35.038086  k
[ 301  308]  -36.868530  e
[ 309  312]  -34.205322  t
[ 313  333]  -25.324823  e
[ 334  375]  -27.300852  p
[ 376  378]  -31.933920  u
[ 379  384]  -32.890301  r
[ 385  390]  -29.606119  o
[ 391  397]  -32.705776  y
[ 398  406]  -36.485676  a
[ 407  413]  -34.427177  ky
[ 414  430]  -32.999310  u:
[ 431  443]  -31.428036  ky
[ 444  450]  -27.330637  u:
[ 451  456]  -36.082684  d
[ 457  459]  -34.722656  a
[ 460  478]  -33.767731  N
[ 479  481]  -34.505859  n
[ 482  496]  -32.447590  o
[ 497  514]  -29.224609  t
[ 515  521]  -31.532925  a
[ 522  538]  -32.647175  i
[ 539  541]  -37.102863  y
[ 542  544]  -35.975262  o:
[ 545  552]  -32.903564  h
[ 553  561]  -36.556858  o
[ 562  566]  -34.351952  e:
[ 567  569]  -34.810547  r
[ 570  576]  -41.727680  u
[ 577  579]  -42.655598  z
[ 580  587]  -42.318604  u
[ 588  591]  -33.812500  n
[ 592  612]  -34.478424  i
[ 613  619]  -44.150948  k
[ 620  626]  -38.051338  a
[ 627  646]  -30.210449  k
[ 647  650]  -44.761230  a
[ 651  653]  -41.123699  w
[ 654  664]  -39.450462  a
[ 665  667]  -38.174480  r
[ 668  670]  -31.382162  u
[ 671  877]  -22.178877  silE
re-computed AM score: -26534.355469
=== end forced alignment ===


------
### read waveform input
