STAT: jconf successfully finalized
STAT: *** loading AM00 _default
Stat: init_phmm: Reading in HMM definition
Stat: read_binhmm: binary format HMM definition
Stat: read_binhmm: this HMM does not need multipath handling
Stat: init_phmm: defined HMMs:    43
Stat: init_phmm: logical names:    43
Stat: init_phmm: base phones:    43 used in logical
Stat: init_phmm: finished reading HMM definitions
STAT: *** AM00 _default loaded
STAT: *** loading LM00 _default
STAT: reading [data/tsuchiya_happy/wav/tsuchiya_happy_068_for_julius.dfa] and [data/tsuchiya_happy/wav/tsuchiya_happy_068_for_julius.dict]...
Stat: init_voca: read 3 words
STAT: done
STAT: Gram #0 tsuchiya_happy_068_for_julius registered
STAT: Gram #0 tsuchiya_happy_068_for_julius: new grammar loaded, now mash it up for recognition
STAT: Gram #0 tsuchiya_happy_068_for_julius: extracting category-pair constraint for the 1st pass
STAT: Gram #0 tsuchiya_happy_068_for_julius: installed
STAT: Gram #0 tsuchiya_happy_068_for_julius: turn on active
STAT: grammar update completed
STAT: *** LM00 _default loaded
STAT: ------
STAT: All models are ready, go for final fusion
STAT: [1] create MFCC extraction instance(s)
STAT: *** create MFCC calculation modules from AM
STAT: AM 0 _default: create a new module MFCC01
STAT: 1 MFCC modules created
STAT: [2] create recognition processing instance(s) with AM and LM
STAT: composing recognizer instance SR00 _default (AM00 _default, LM00 _default)
STAT: Building HMM lexicon tree
STAT: lexicon size: 183+0=183
STAT: coordination check passed
STAT: multi-gram: beam width set to 183 (guess) by lexicon change
STAT: wchmm (re)build completed
STAT: SR00 _default composed
STAT: [3] initialize for acoustic HMM calculation
Stat: outprob_init: state-level mixture PDFs, use calc_mix()
Stat: addlog: generating addlog table (size = 1953 kB)
Stat: addlog: addlog table generated
STAT: [4] prepare MFCC storage(s)
STAT: All init successfully done

STAT: ###### initialize input device
----------------------- System Information begin ---------------------
JuliusLib rev.4.4.2.1 (fast)

Engine specification:
 -  Base setup   : fast
 -  Supported LM : DFA, N-gram, Word
 -  Extension    :
 -  Compiled by  : gcc -g -O2
Library configuration: version 4.4.2.1
 - Audio input
    primary A/D-in driver   : coreaudio (MacOSX CoreAudio)
    available drivers       :
    wavefile formats        : RAW and WAV only
    max. length of an input : 320000 samples, 150 words
 - Language Model
    class N-gram support    : yes
    MBR weight support      : yes
    word id unit            : short (2 bytes)
 - Acoustic Model
    multi-path treatment    : autodetect
 - External library
    file decompression by   : zlib library
 - Process hangling
    fork on adinnet input   : no
 - built-in SIMD instruction set for DNN
    SSE AVX FMA
    FMA is available maximum on this cpu, use it


------------------------------------------------------------
Configuration of Modules

 Number of defined modules: AM=1, LM=1, SR=1

 Acoustic Model (with input parameter spec.):
 - AM00 "_default"
	hmmfilename=./models/hmmdefs_monof_mix16_gid.binhmm

 Language Model:
 - LM00 "_default"
	grammar #1:
	    dfa  = data/tsuchiya_happy/wav/tsuchiya_happy_068_for_julius.dfa
	    dict = data/tsuchiya_happy/wav/tsuchiya_happy_068_for_julius.dict

 Recognizer:
 - SR00 "_default" (AM00, LM00)

------------------------------------------------------------
Speech Analysis Module(s)

[MFCC01]  for [AM00 _default]

 Acoustic analysis condition:
	       parameter = MFCC_E_D_N_Z (25 dim. from 12 cepstrum + energy, abs energy supressed with CMN)
	sample frequency = 16000 Hz
	   sample period =  625  (1 = 100ns)
	     window size =  400 samples (25.0 ms)
	     frame shift =  160 samples (10.0 ms)
	    pre-emphasis = 0.97
	    # filterbank = 24
	   cepst. lifter = 22
	      raw energy = False
	energy normalize = False
	    delta window = 2 frames (20.0 ms) around
	     hi freq cut = OFF
	     lo freq cut = OFF
	 zero mean frame = OFF
	       use power = OFF
	             CVN = OFF
	            VTLN = OFF

    spectral subtraction = off

 cep. mean normalization = yes, with per-utterance self mean
 cep. var. normalization = no

	 base setup from = Julius defaults

------------------------------------------------------------
Acoustic Model(s)

[AM00 "_default"]

 HMM Info:
    43 models, 129 states, 129 mpdfs, 2064 Gaussians are defined
	      model type = context dependency handling OFF
      training parameter = MFCC_E_N_D_Z
	   vector length = 25
	number of stream = 1
	     stream info = [0-24]
	cov. matrix type = DIAGC
	   duration type = NULLD
	max mixture size = 16 Gaussians
     max length of model = 5 states
     logical base phones = 43
       model skip trans. = not exist, no multi-path handling

 AM Parameters:
        Gaussian pruning = none (full computation)  (-gprune)
    short pause HMM name = "sp" specified, "sp" applied (physical)  (-sp)
  cross-word CD on pass1 = handle by approx. (use average prob. of same LC)

------------------------------------------------------------
Language Model(s)

[LM00 "_default"] type=grammar

 DFA grammar info:
      4 nodes, 3 arcs, 3 terminal(category) symbols
      category-pair matrix: 16 bytes (448 bytes allocated)

 Vocabulary Info:
        vocabulary size  = 3 words, 61 models
        average word len = 20.3 models, 61.0 states
       maximum state num = 177 nodes per word
       transparent words = not exist
       words under class = not exist

 Parameters:
   found sp category IDs =

------------------------------------------------------------
Recognizer(s)

[SR00 "_default"]  AM00 "_default"  +  LM00 "_default"

 Lexicon tree:
	 total node num =    183
	  root node num =      3
	  leaf node num =      3

	(-penalty1) IW penalty1 = +0.0
	(-penalty2) IW penalty2 = +0.0
	(-cmalpha)CM alpha coef = 0.050000

 Search parameters: 
	    multi-path handling = no
	(-b) trellis beam width = 183 (-1 or not specified - guessed)
	(-bs)score pruning thres= disabled
	(-n)search candidate num= 1
	(-s)  search stack size = 500
	(-m)    search overflow = after 2000 hypothesis poped
	        2nd pass method = searching sentence, generating N-best
	(-b2)  pass2 beam width = 30
	(-lookuprange)lookup range= 5  (tm-5 <= t <tm+5)
	(-sb)2nd scan beamthres = 80.0 (in logscore)
	(-n)        search till = 1 candidates found
	(-output)    and output = 1 candidates out of above
	 output phoneme alignments
	 all possible words will be expanded in 2nd pass
	 build_wchmm2() used
	 lcdset limited by word-pair constraint
	short pause segmentation = off
	fall back on search fail = off, returns search failure

------------------------------------------------------------
Decoding algorithm:

	1st pass input processing = buffered, batch
	1st pass method = 1-best approx. generating indexed trellis
	output word confidence measure based on search-time scores

------------------------------------------------------------
FrontEnd:

 Input stream:
	             input type = waveform
	           input source = waveform file
	          input filelist = (none, get file name from stdin)
	          sampling freq. = 16000 Hz required
	         threaded A/D-in = supported, off
	   zero frames stripping = on
	         silence cutting = off
	    long-term DC removal = off
	    level scaling factor = 1.00 (disabled)
	      reject short input = off
	      reject  long input = off

----------------------- System Information end -----------------------

Notice for feature extraction (01),
	*************************************************************
	* Cepstral mean normalization for batch decoding:           *
	* per-utterance mean will be computed and applied.          *
	*************************************************************

------
### read waveform input
Stat: adin_file: input speechfile: data/tsuchiya_happy/wav/tsuchiya_happy_068_for_julius.wav
Warning: strip: sample 1111-1127 has zero value, stripped
Warning: strip: sample 1376-1391 has zero value, stripped
Warning: strip: sample 97000-97015 has zero value, stripped
Warning: strip: sample 98138-98154 has zero value, stripped
Warning: strip: sample 98731-98749 has zero value, stripped
Warning: strip: sample 98879-98895 has zero value, stripped
Warning: strip: sample 99516-99542 has zero value, stripped
Warning: strip: sample 99840-99855 has zero value, stripped
Warning: strip: sample 99963-99979 has zero value, stripped
Warning: strip: sample 100394-100413 has zero value, stripped
Warning: strip: sample 101932-101948 has zero value, stripped
STAT: 105561 samples (6.60 sec.)
STAT: ### speech analysis (waveform -> MFCC)
### Recognition: 1st pass (LR beam)
pass1_best: w_0 w_1 w_2
pass1_best_wordseq: 0 1 2
pass1_best_phonemeseq: silB | sh a N sh a N u m a w a u d o j i N g u: e s a N p a i s u r u sh i N k o N f u: f u g a n o q t e i t a u m a n o k o t o | silE
pass1_best_score: -19108.423828
### Recognition: 2nd pass (RL heuristic best-first)
STAT: 00 _default: 3 generated, 3 pushed, 4 nodes popped in 658
ALIGN: === phoneme alignment begin ===
sentence1: w_0 w_1 w_2
wseq1: 0 1 2
phseq1: silB | sh a N sh a N u m a w a u d o j i N g u: e s a N p a i s u r u sh i N k o N f u: f u g a n o q t e i t a u m a n o k o t o | silE
cmscore1: 1.000 1.000 1.000
score1: -19108.359375
=== begin forced alignment ===
-- phoneme alignment --
 id: from  to    n_score    unit
 ----------------------------------------
[   0   76]  -28.265657  silB
[  77   79]  -30.249105  sh
[  80   82]  -30.520590  a
[  83   86]  -30.502747  N
[  87   89]  -32.786945  sh
[  90   93]  -29.636536  a
[  94   98]  -30.060156  N
[  99  101]  -32.555340  u
[ 102  104]  -29.699463  m
[ 105  111]  -26.144602  a
[ 112  115]  -24.225464  w
[ 116  118]  -27.816895  a
[ 119  134]  -26.454788  u
[ 135  173]  -30.143179  d
[ 174  184]  -26.783337  o
[ 185  190]  -34.121338  j
[ 191  205]  -27.422005  i
[ 206  211]  -26.555176  N
[ 212  214]  -31.287924  g
[ 215  230]  -25.181824  u:
[ 231  245]  -28.447851  e
[ 246  256]  -30.088690  s
[ 257  264]  -25.761841  a
[ 265  273]  -31.509712  N
[ 274  277]  -35.538208  p
[ 278  288]  -29.500000  a
[ 289  293]  -32.722656  i
[ 294  297]  -27.309326  s
[ 298  306]  -29.867079  u
[ 307  315]  -29.055447  r
[ 316  326]  -32.838070  u
[ 327  333]  -32.143414  sh
[ 334  350]  -32.062500  i
[ 351  358]  -31.261475  N
[ 359  363]  -32.341602  k
[ 364  369]  -25.903320  o
[ 370  372]  -28.437500  N
[ 373  385]  -30.763973  f
[ 386  388]  -30.592773  u:
[ 389  417]  -31.188375  f
[ 418  421]  -30.170654  u
[ 422  424]  -30.896484  g
[ 425  434]  -28.578028  a
[ 435  441]  -30.258789  n
[ 442  454]  -30.391001  o
[ 455  458]  -29.559326  q
[ 459  465]  -33.501396  t
[ 466  469]  -26.009521  e
[ 470  480]  -29.712713  i
[ 481  489]  -30.700521  t
[ 490  492]  -32.172199  a
[ 493  496]  -26.416504  u
[ 497  499]  -26.326498  m
[ 500  504]  -26.553125  a
[ 505  509]  -29.481640  n
[ 510  512]  -33.281574  o
[ 513  552]  -31.457836  k
[ 553  558]  -35.441406  o
[ 559  564]  -33.119465  t
[ 565  567]  -31.339844  o
[ 568  657]  -25.073828  silE
re-computed AM score: -19108.423828
=== end forced alignment ===


------
### read waveform input
