STAT: jconf successfully finalized
STAT: *** loading AM00 _default
Stat: init_phmm: Reading in HMM definition
Stat: read_binhmm: binary format HMM definition
Stat: read_binhmm: this HMM does not need multipath handling
Stat: init_phmm: defined HMMs:    43
Stat: init_phmm: logical names:    43
Stat: init_phmm: base phones:    43 used in logical
Stat: init_phmm: finished reading HMM definitions
STAT: *** AM00 _default loaded
STAT: *** loading LM00 _default
STAT: reading [data/fujitou_angry/wav/fujitou_angry_097_for_julius.dfa] and [data/fujitou_angry/wav/fujitou_angry_097_for_julius.dict]...
Stat: init_voca: read 3 words
STAT: done
STAT: Gram #0 fujitou_angry_097_for_julius registered
STAT: Gram #0 fujitou_angry_097_for_julius: new grammar loaded, now mash it up for recognition
STAT: Gram #0 fujitou_angry_097_for_julius: extracting category-pair constraint for the 1st pass
STAT: Gram #0 fujitou_angry_097_for_julius: installed
STAT: Gram #0 fujitou_angry_097_for_julius: turn on active
STAT: grammar update completed
STAT: *** LM00 _default loaded
STAT: ------
STAT: All models are ready, go for final fusion
STAT: [1] create MFCC extraction instance(s)
STAT: *** create MFCC calculation modules from AM
STAT: AM 0 _default: create a new module MFCC01
STAT: 1 MFCC modules created
STAT: [2] create recognition processing instance(s) with AM and LM
STAT: composing recognizer instance SR00 _default (AM00 _default, LM00 _default)
STAT: Building HMM lexicon tree
STAT: lexicon size: 279+0=279
STAT: coordination check passed
STAT: multi-gram: beam width set to 200 (guess) by lexicon change
STAT: wchmm (re)build completed
STAT: SR00 _default composed
STAT: [3] initialize for acoustic HMM calculation
Stat: outprob_init: state-level mixture PDFs, use calc_mix()
Stat: addlog: generating addlog table (size = 1953 kB)
Stat: addlog: addlog table generated
STAT: [4] prepare MFCC storage(s)
STAT: All init successfully done

STAT: ###### initialize input device
----------------------- System Information begin ---------------------
JuliusLib rev.4.4.2.1 (fast)

Engine specification:
 -  Base setup   : fast
 -  Supported LM : DFA, N-gram, Word
 -  Extension    :
 -  Compiled by  : gcc -g -O2
Library configuration: version 4.4.2.1
 - Audio input
    primary A/D-in driver   : coreaudio (MacOSX CoreAudio)
    available drivers       :
    wavefile formats        : RAW and WAV only
    max. length of an input : 320000 samples, 150 words
 - Language Model
    class N-gram support    : yes
    MBR weight support      : yes
    word id unit            : short (2 bytes)
 - Acoustic Model
    multi-path treatment    : autodetect
 - External library
    file decompression by   : zlib library
 - Process hangling
    fork on adinnet input   : no
 - built-in SIMD instruction set for DNN
    SSE AVX FMA
    FMA is available maximum on this cpu, use it


------------------------------------------------------------
Configuration of Modules

 Number of defined modules: AM=1, LM=1, SR=1

 Acoustic Model (with input parameter spec.):
 - AM00 "_default"
	hmmfilename=./models/hmmdefs_monof_mix16_gid.binhmm

 Language Model:
 - LM00 "_default"
	grammar #1:
	    dfa  = data/fujitou_angry/wav/fujitou_angry_097_for_julius.dfa
	    dict = data/fujitou_angry/wav/fujitou_angry_097_for_julius.dict

 Recognizer:
 - SR00 "_default" (AM00, LM00)

------------------------------------------------------------
Speech Analysis Module(s)

[MFCC01]  for [AM00 _default]

 Acoustic analysis condition:
	       parameter = MFCC_E_D_N_Z (25 dim. from 12 cepstrum + energy, abs energy supressed with CMN)
	sample frequency = 16000 Hz
	   sample period =  625  (1 = 100ns)
	     window size =  400 samples (25.0 ms)
	     frame shift =  160 samples (10.0 ms)
	    pre-emphasis = 0.97
	    # filterbank = 24
	   cepst. lifter = 22
	      raw energy = False
	energy normalize = False
	    delta window = 2 frames (20.0 ms) around
	     hi freq cut = OFF
	     lo freq cut = OFF
	 zero mean frame = OFF
	       use power = OFF
	             CVN = OFF
	            VTLN = OFF

    spectral subtraction = off

 cep. mean normalization = yes, with per-utterance self mean
 cep. var. normalization = no

	 base setup from = Julius defaults

------------------------------------------------------------
Acoustic Model(s)

[AM00 "_default"]

 HMM Info:
    43 models, 129 states, 129 mpdfs, 2064 Gaussians are defined
	      model type = context dependency handling OFF
      training parameter = MFCC_E_N_D_Z
	   vector length = 25
	number of stream = 1
	     stream info = [0-24]
	cov. matrix type = DIAGC
	   duration type = NULLD
	max mixture size = 16 Gaussians
     max length of model = 5 states
     logical base phones = 43
       model skip trans. = not exist, no multi-path handling

 AM Parameters:
        Gaussian pruning = none (full computation)  (-gprune)
    short pause HMM name = "sp" specified, "sp" applied (physical)  (-sp)
  cross-word CD on pass1 = handle by approx. (use average prob. of same LC)

------------------------------------------------------------
Language Model(s)

[LM00 "_default"] type=grammar

 DFA grammar info:
      4 nodes, 3 arcs, 3 terminal(category) symbols
      category-pair matrix: 16 bytes (448 bytes allocated)

 Vocabulary Info:
        vocabulary size  = 3 words, 93 models
        average word len = 31.0 models, 93.0 states
       maximum state num = 273 nodes per word
       transparent words = not exist
       words under class = not exist

 Parameters:
   found sp category IDs =

------------------------------------------------------------
Recognizer(s)

[SR00 "_default"]  AM00 "_default"  +  LM00 "_default"

 Lexicon tree:
	 total node num =    279
	  root node num =      3
	  leaf node num =      3

	(-penalty1) IW penalty1 = +0.0
	(-penalty2) IW penalty2 = +0.0
	(-cmalpha)CM alpha coef = 0.050000

 Search parameters: 
	    multi-path handling = no
	(-b) trellis beam width = 200 (-1 or not specified - guessed)
	(-bs)score pruning thres= disabled
	(-n)search candidate num= 1
	(-s)  search stack size = 500
	(-m)    search overflow = after 2000 hypothesis poped
	        2nd pass method = searching sentence, generating N-best
	(-b2)  pass2 beam width = 30
	(-lookuprange)lookup range= 5  (tm-5 <= t <tm+5)
	(-sb)2nd scan beamthres = 80.0 (in logscore)
	(-n)        search till = 1 candidates found
	(-output)    and output = 1 candidates out of above
	 output phoneme alignments
	 all possible words will be expanded in 2nd pass
	 build_wchmm2() used
	 lcdset limited by word-pair constraint
	short pause segmentation = off
	fall back on search fail = off, returns search failure

------------------------------------------------------------
Decoding algorithm:

	1st pass input processing = buffered, batch
	1st pass method = 1-best approx. generating indexed trellis
	output word confidence measure based on search-time scores

------------------------------------------------------------
FrontEnd:

 Input stream:
	             input type = waveform
	           input source = waveform file
	          input filelist = (none, get file name from stdin)
	          sampling freq. = 16000 Hz required
	         threaded A/D-in = supported, off
	   zero frames stripping = on
	         silence cutting = off
	    long-term DC removal = off
	    level scaling factor = 1.00 (disabled)
	      reject short input = off
	      reject  long input = off

----------------------- System Information end -----------------------

Notice for feature extraction (01),
	*************************************************************
	* Cepstral mean normalization for batch decoding:           *
	* per-utterance mean will be computed and applied.          *
	*************************************************************

------
### read waveform input
Stat: adin_file: input speechfile: data/fujitou_angry/wav/fujitou_angry_097_for_julius.wav
Warning: strip: sample 380-395 has zero value, stripped
Warning: strip: sample 551-566 has zero value, stripped
Warning: strip: sample 2091-2106 has zero value, stripped
Warning: strip: sample 2876-2891 has zero value, stripped
Warning: strip: sample 3236-3251 has zero value, stripped
Warning: strip: sample 103797-103812 has zero value, stripped
Warning: strip: sample 104555-104573 has zero value, stripped
Warning: strip: sample 137299-137314 has zero value, stripped
Warning: strip: sample 138644-138660 has zero value, stripped
Warning: strip: sample 138771-138789 has zero value, stripped
Warning: strip: sample 139034-139062 has zero value, stripped
Warning: strip: sample 139607-139622 has zero value, stripped
Warning: strip: sample 140624-140639 has zero value, stripped
Warning: strip: sample 141557-141573 has zero value, stripped
Warning: strip: sample 141594-141611 has zero value, stripped
Warning: strip: sample 141812-141832 has zero value, stripped
Warning: strip: sample 142185-142206 has zero value, stripped
Warning: strip: sample 142363-142380 has zero value, stripped
Warning: strip: sample 143230-143245 has zero value, stripped
Warning: strip: sample 143601-143617 has zero value, stripped
Warning: strip: sample 143773-143790 has zero value, stripped
Warning: strip: sample 143882-143897 has zero value, stripped
Warning: strip: sample 143972-143988 has zero value, stripped
Warning: strip: sample 144007-144030 has zero value, stripped
Warning: strip: sample 144276-144297 has zero value, stripped
Warning: strip: sample 145283-145301 has zero value, stripped
Warning: strip: sample 146131-146155 has zero value, stripped
Warning: strip: sample 147102-147117 has zero value, stripped
Warning: strip: sample 147370-147386 has zero value, stripped
Warning: strip: sample 148283-148311 has zero value, stripped
Warning: strip: sample 149003-149022 has zero value, stripped
Warning: strip: sample 149324-149339 has zero value, stripped
Warning: strip: sample 149468-149490 has zero value, stripped
Warning: strip: sample 149749-149767 has zero value, stripped
Warning: strip: sample 150149-150164 has zero value, stripped
Warning: strip: sample 150364-150380 has zero value, stripped
Warning: strip: sample 151015-151030 has zero value, stripped
Warning: strip: sample 152385-152401 has zero value, stripped
Warning: strip: sample 152490-152510 has zero value, stripped
Warning: strip: sample 152925-152952 has zero value, stripped
Warning: strip: sample 153002-153019 has zero value, stripped
Warning: strip: sample 153951-153966 has zero value, stripped
Warning: strip: sample 154021-154040 has zero value, stripped
Warning: strip: sample 154072-154087 has zero value, stripped
Warning: strip: sample 154121-154138 has zero value, stripped
Warning: strip: sample 154213-154229 has zero value, stripped
Warning: strip: sample 154395-154412 has zero value, stripped
Warning: strip: sample 155137-155152 has zero value, stripped
Warning: strip: sample 155396-155411 has zero value, stripped
Warning: strip: sample 155563-155590 has zero value, stripped
Warning: strip: sample 155943-155958 has zero value, stripped
Warning: strip: sample 157545-157563 has zero value, stripped
Warning: strip: sample 157586-157602 has zero value, stripped
Warning: strip: sample 158346-158365 has zero value, stripped
Warning: strip: sample 158428-158450 has zero value, stripped
Warning: strip: sample 158643-158661 has zero value, stripped
Warning: strip: sample 159530-159548 has zero value, stripped
Warning: strip: sample 161034-161049 has zero value, stripped
Warning: strip: sample 161655-161670 has zero value, stripped
Warning: strip: sample 162382-162397 has zero value, stripped
Warning: strip: sample 163236-163254 has zero value, stripped
Warning: strip: sample 163929-163945 has zero value, stripped
Warning: strip: sample 164257-164274 has zero value, stripped
Warning: strip: sample 164941-164961 has zero value, stripped
Warning: strip: sample 164998-165023 has zero value, stripped
Warning: strip: sample 165199-165215 has zero value, stripped
Warning: strip: sample 165271-165295 has zero value, stripped
Warning: strip: sample 165495-165510 has zero value, stripped
Warning: strip: sample 165674-165696 has zero value, stripped
Warning: strip: sample 165705-165723 has zero value, stripped
Warning: strip: sample 165930-165947 has zero value, stripped
Warning: strip: sample 166060-166079 has zero value, stripped
Warning: strip: sample 166096-166126 has zero value, stripped
Warning: strip: sample 166224-166246 has zero value, stripped
Warning: strip: sample 166601-166619 has zero value, stripped
Warning: strip: sample 166835-166854 has zero value, stripped
Warning: strip: sample 166955-166976 has zero value, stripped
Warning: strip: sample 167377-167392 has zero value, stripped
Warning: strip: sample 167714-167741 has zero value, stripped
Warning: strip: sample 168977-168998 has zero value, stripped
Warning: strip: sample 169082-169099 has zero value, stripped
Warning: strip: sample 169643-169665 has zero value, stripped
Warning: strip: sample 170291-170308 has zero value, stripped
Warning: strip: sample 170564-170579 has zero value, stripped
Warning: strip: sample 170599-170617 has zero value, stripped
Warning: strip: sample 170886-170905 has zero value, stripped
Warning: strip: sample 171082-171099 has zero value, stripped
Warning: strip: sample 171297-171316 has zero value, stripped
Warning: strip: sample 172543-172558 has zero value, stripped
Warning: strip: sample 173472-173492 has zero value, stripped
Warning: strip: sample 174390-174408 has zero value, stripped
Warning: strip: sample 174534-174551 has zero value, stripped
Warning: strip: sample 174772-174800 has zero value, stripped
Warning: strip: sample 175198-175213 has zero value, stripped
Warning: strip: sample 175606-175624 has zero value, stripped
Warning: strip: sample 176346-176365 has zero value, stripped
Warning: strip: sample 177021-177036 has zero value, stripped
Warning: strip: sample 177534-177552 has zero value, stripped
Warning: strip: sample 178081-178101 has zero value, stripped
Warning: strip: sample 178668-178686 has zero value, stripped
Warning: strip: sample 179681-179700 has zero value, stripped
Warning: strip: sample 180032-180047 has zero value, stripped
Warning: strip: sample 180327-180346 has zero value, stripped
Warning: strip: sample 181698-181723 has zero value, stripped
Warning: strip: sample 182350-182366 has zero value, stripped
Warning: strip: sample 182754-182769 has zero value, stripped
Warning: strip: sample 183045-183060 has zero value, stripped
Warning: strip: sample 183105-183120 has zero value, stripped
Warning: strip: sample 183235-183257 has zero value, stripped
Warning: strip: sample 183295-183317 has zero value, stripped
Warning: strip: sample 183486-183502 has zero value, stripped
Warning: strip: sample 183772-183789 has zero value, stripped
Warning: strip: sample 184022-184038 has zero value, stripped
Warning: strip: sample 184419-184434 has zero value, stripped
Warning: strip: sample 185053-185068 has zero value, stripped
Warning: strip: sample 185096-185113 has zero value, stripped
Warning: strip: sample 185245-185269 has zero value, stripped
Warning: strip: sample 185504-185532 has zero value, stripped
Warning: strip: sample 185619-185634 has zero value, stripped
Warning: strip: sample 187372-187389 has zero value, stripped
Warning: strip: sample 187438-187457 has zero value, stripped
Warning: strip: sample 187731-187746 has zero value, stripped
Warning: strip: sample 188771-188786 has zero value, stripped
Warning: strip: sample 188804-188819 has zero value, stripped
Warning: strip: sample 190172-190189 has zero value, stripped
Warning: strip: sample 190418-190433 has zero value, stripped
Warning: strip: sample 190519-190536 has zero value, stripped
Warning: strip: sample 191463-191480 has zero value, stripped
Warning: strip: sample 191509-191524 has zero value, stripped
Warning: strip: sample 192578-192593 has zero value, stripped
Warning: strip: sample 193870-193892 has zero value, stripped
Warning: strip: sample 194341-194356 has zero value, stripped
Warning: strip: sample 195034-195052 has zero value, stripped
Warning: strip: sample 195150-195166 has zero value, stripped
Warning: strip: sample 195579-195596 has zero value, stripped
Warning: strip: sample 195746-195762 has zero value, stripped
Warning: strip: sample 195801-195819 has zero value, stripped
Warning: strip: sample 196287-196304 has zero value, stripped
Warning: strip: sample 196531-196558 has zero value, stripped
Warning: strip: sample 196785-196803 has zero value, stripped
Warning: strip: sample 197683-197706 has zero value, stripped
Warning: strip: sample 198062-198078 has zero value, stripped
Warning: strip: sample 198094-198110 has zero value, stripped
Warning: strip: sample 198144-198159 has zero value, stripped
Warning: strip: sample 198589-198610 has zero value, stripped
Warning: strip: sample 198751-198766 has zero value, stripped
Warning: strip: sample 199152-199170 has zero value, stripped
Warning: strip: sample 199553-199577 has zero value, stripped
Warning: strip: sample 202804-202827 has zero value, stripped
Warning: strip: sample 203466-203493 has zero value, stripped
Warning: strip: sample 203657-203673 has zero value, stripped
Warning: strip: sample 204210-204227 has zero value, stripped
Warning: strip: sample 204234-204253 has zero value, stripped
Warning: strip: sample 204335-204352 has zero value, stripped
Warning: strip: sample 204624-204654 has zero value, stripped
Warning: strip: sample 204685-204707 has zero value, stripped
Warning: strip: sample 204798-204817 has zero value, stripped
Warning: strip: sample 205351-205369 has zero value, stripped
Warning: strip: sample 205601-205632 has zero value, stripped
Warning: strip: sample 206586-206620 has zero value, stripped
Warning: strip: sample 206624-206642 has zero value, stripped
Warning: strip: sample 206944-206959 has zero value, stripped
Warning: strip: sample 207347-207365 has zero value, stripped
Warning: strip: sample 207473-207494 has zero value, stripped
Warning: strip: sample 207585-207600 has zero value, stripped
Warning: strip: sample 207997-208015 has zero value, stripped
Warning: strip: sample 208658-208673 has zero value, stripped
Warning: strip: sample 208886-208903 has zero value, stripped
Warning: strip: sample 209067-209091 has zero value, stripped
Warning: strip: sample 209691-209708 has zero value, stripped
Warning: strip: sample 210080-210096 has zero value, stripped
Warning: strip: sample 211135-211155 has zero value, stripped
Warning: strip: sample 211495-211510 has zero value, stripped
Warning: strip: sample 213012-213027 has zero value, stripped
Warning: strip: sample 213235-213255 has zero value, stripped
Warning: strip: sample 213767-213783 has zero value, stripped
Warning: strip: sample 214114-214129 has zero value, stripped
Warning: strip: sample 214502-214518 has zero value, stripped
Warning: strip: sample 216309-216324 has zero value, stripped
Warning: strip: sample 216397-216418 has zero value, stripped
Warning: strip: sample 216623-216639 has zero value, stripped
Warning: strip: sample 217163-217182 has zero value, stripped
Warning: strip: sample 217387-217405 has zero value, stripped
Warning: strip: sample 218167-218182 has zero value, stripped
Warning: strip: sample 218575-218590 has zero value, stripped
Warning: strip: sample 218860-218879 has zero value, stripped
Warning: strip: sample 219043-219058 has zero value, stripped
Warning: strip: sample 219479-219498 has zero value, stripped
Warning: strip: sample 220329-220345 has zero value, stripped
Warning: strip: sample 220617-220637 has zero value, stripped
Warning: strip: sample 220732-220749 has zero value, stripped
Warning: strip: sample 220987-221003 has zero value, stripped
Warning: strip: sample 221347-221364 has zero value, stripped
Warning: strip: sample 221475-221492 has zero value, stripped
Warning: strip: sample 221545-221563 has zero value, stripped
Warning: strip: sample 222572-222591 has zero value, stripped
Warning: strip: sample 222683-222704 has zero value, stripped
Warning: strip: sample 222924-222941 has zero value, stripped
Warning: strip: sample 223200-223223 has zero value, stripped
Warning: strip: sample 223344-223359 has zero value, stripped
Warning: strip: sample 223489-223509 has zero value, stripped
Warning: strip: sample 224218-224233 has zero value, stripped
Warning: strip: sample 224305-224324 has zero value, stripped
Warning: strip: sample 224580-224597 has zero value, stripped
Warning: strip: sample 224828-224846 has zero value, stripped
Warning: strip: sample 224850-224877 has zero value, stripped
Warning: strip: sample 225876-225895 has zero value, stripped
Warning: strip: sample 227791-227809 has zero value, stripped
Warning: strip: sample 228647-228663 has zero value, stripped
Warning: strip: sample 228993-229008 has zero value, stripped
Warning: strip: sample 229555-229570 has zero value, stripped
Warning: strip: sample 229720-229736 has zero value, stripped
Warning: strip: sample 230364-230379 has zero value, stripped
Warning: strip: sample 230442-230468 has zero value, stripped
Warning: strip: sample 230561-230577 has zero value, stripped
Warning: strip: sample 231258-231273 has zero value, stripped
Warning: strip: sample 231347-231367 has zero value, stripped
Warning: strip: sample 232662-232677 has zero value, stripped
Warning: strip: sample 232963-232983 has zero value, stripped
Warning: strip: sample 233072-233101 has zero value, stripped
Warning: strip: sample 233130-233148 has zero value, stripped
Warning: strip: sample 234185-234207 has zero value, stripped
Warning: strip: sample 235860-235877 has zero value, stripped
Warning: strip: sample 236323-236338 has zero value, stripped
Warning: strip: sample 236995-237011 has zero value, stripped
Warning: strip: sample 237197-237214 has zero value, stripped
Warning: strip: sample 237958-237978 has zero value, stripped
STAT: 234828 samples (14.68 sec.)
STAT: ### speech analysis (waveform -> MFCC)
### Recognition: 1st pass (LR beam)
pass1_best: w_0 w_1 w_2
pass1_best_wordseq: 0 1 2
pass1_best_phonemeseq: silB | k o n o g a i n e N n o d o: ny u: n i y o q t e s a m a z a m a n a b a r i e: sh o N n o ry u: t a i n o k o N py u: t a: sh i my u r e: sh o N g a t a k a i s e i d o d e k a n o: t o n a q t a | silE
pass1_best_score: -35425.554688
### Recognition: 2nd pass (RL heuristic best-first)
STAT: 00 _default: 3 generated, 3 pushed, 4 nodes popped in 1466
ALIGN: === phoneme alignment begin ===
sentence1: w_0 w_1 w_2
wseq1: 0 1 2
phseq1: silB | k o n o g a i n e N n o d o: ny u: n i y o q t e s a m a z a m a n a b a r i e: sh o N n o ry u: t a i n o k o N py u: t a: sh i my u r e: sh o N g a t a k a i s e i d o d e k a n o: t o n a q t a | silE
cmscore1: 1.000 1.000 1.000
score1: -35425.628906
=== begin forced alignment ===
-- phoneme alignment --
 id: from  to    n_score    unit
 ----------------------------------------
[   0   19]  -19.160473  silB
[  20   31]  -29.319757  k
[  32   36]  -27.735327  o
[  37   47]  -26.808710  n
[  48   57]  -28.855127  o
[  58   65]  -30.280869  g
[  66   77]  -25.748962  a
[  78   84]  -28.310965  i
[  85   91]  -28.913645  n
[  92   94]  -27.494955  e
[  95  104]  -26.657764  N
[ 105  108]  -28.545349  n
[ 109  111]  -27.137045  o
[ 112  122]  -27.525969  d
[ 123  136]  -25.520473  o:
[ 137  149]  -27.736141  ny
[ 150  155]  -28.324015  u:
[ 156  163]  -30.976868  n
[ 164  166]  -28.654135  i
[ 167  172]  -30.129395  y
[ 173  180]  -29.681763  o
[ 181  188]  -31.085327  q
[ 189  193]  -32.563866  t
[ 194  216]  -30.057617  e
[ 217  270]  -25.762596  s
[ 271  276]  -30.626139  a
[ 277  284]  -28.783691  m
[ 285  290]  -28.283773  a
[ 291  298]  -28.010071  z
[ 299  301]  -31.827475  a
[ 302  307]  -27.768881  m
[ 308  311]  -28.487549  a
[ 312  318]  -27.862444  n
[ 319  321]  -28.793945  a
[ 322  331]  -33.318066  b
[ 332  338]  -27.712193  a
[ 339  344]  -29.770508  r
[ 345  355]  -29.378284  i
[ 356  363]  -28.729858  e:
[ 364  377]  -28.470215  sh
[ 378  384]  -31.760183  o
[ 385  389]  -27.007618  N
[ 390  393]  -29.669922  n
[ 394  400]  -28.778599  o
[ 401  414]  -30.513950  ry
[ 415  425]  -28.540838  u:
[ 426  431]  -30.630371  t
[ 432  437]  -24.407715  a
[ 438  442]  -27.601171  i
[ 443  448]  -27.242025  n
[ 449  456]  -30.855957  o
[ 457  463]  -29.435129  k
[ 464  469]  -28.065918  o
[ 470  480]  -27.762074  N
[ 481  485]  -29.482227  py
[ 486  497]  -29.525635  u:
[ 498  501]  -33.853027  t
[ 502  512]  -30.130505  a:
[ 513  525]  -26.139198  sh
[ 526  529]  -30.144287  i
[ 530  537]  -28.223755  my
[ 538  540]  -31.439779  u
[ 541  543]  -29.472982  r
[ 544  553]  -27.214355  e:
[ 554  566]  -27.626278  sh
[ 567  570]  -29.895264  o
[ 571  578]  -28.498413  N
[ 579  587]  -27.693359  g
[ 588  602]  -30.389713  a
[ 603  660]  -25.886854  t
[ 661  672]  -29.062826  a
[ 673  681]  -31.149740  k
[ 682  690]  -26.189671  a
[ 691  705]  -27.650782  i
[ 706  711]  -27.377930  s
[ 712  725]  -25.640486  e
[ 726  728]  -30.567709  i
[ 729  734]  -28.509115  d
[ 735  739]  -28.380859  o
[ 740  743]  -28.837891  d
[ 744  751]  -29.855469  e
[ 752  762]  -30.360441  k
[ 763  765]  -27.011068  a
[ 766  775]  -28.018946  n
[ 776  786]  -29.106712  o:
[ 787  792]  -29.158854  t
[ 793  795]  -26.386719  o
[ 796  800]  -28.462891  n
[ 801  808]  -29.622559  a
[ 809  812]  -34.957520  q
[ 813  824]  -26.615561  t
[ 825  844]  -28.572168  a
[ 845 1465]  -18.795061  silE
re-computed AM score: -35425.554688
=== end forced alignment ===


------
### read waveform input
