STAT: jconf successfully finalized
STAT: *** loading AM00 _default
Stat: init_phmm: Reading in HMM definition
Stat: read_binhmm: binary format HMM definition
Stat: read_binhmm: this HMM does not need multipath handling
Stat: init_phmm: defined HMMs:    43
Stat: init_phmm: logical names:    43
Stat: init_phmm: base phones:    43 used in logical
Stat: init_phmm: finished reading HMM definitions
STAT: *** AM00 _default loaded
STAT: *** loading LM00 _default
STAT: reading [data/tsuchiya_angry/wav/tsuchiya_angry_032_for_julius.dfa] and [data/tsuchiya_angry/wav/tsuchiya_angry_032_for_julius.dict]...
Stat: init_voca: read 3 words
STAT: done
STAT: Gram #0 tsuchiya_angry_032_for_julius registered
STAT: Gram #0 tsuchiya_angry_032_for_julius: new grammar loaded, now mash it up for recognition
STAT: Gram #0 tsuchiya_angry_032_for_julius: extracting category-pair constraint for the 1st pass
STAT: Gram #0 tsuchiya_angry_032_for_julius: installed
STAT: Gram #0 tsuchiya_angry_032_for_julius: turn on active
STAT: grammar update completed
STAT: *** LM00 _default loaded
STAT: ------
STAT: All models are ready, go for final fusion
STAT: [1] create MFCC extraction instance(s)
STAT: *** create MFCC calculation modules from AM
STAT: AM 0 _default: create a new module MFCC01
STAT: 1 MFCC modules created
STAT: [2] create recognition processing instance(s) with AM and LM
STAT: composing recognizer instance SR00 _default (AM00 _default, LM00 _default)
STAT: Building HMM lexicon tree
STAT: lexicon size: 285+0=285
STAT: coordination check passed
STAT: multi-gram: beam width set to 200 (guess) by lexicon change
STAT: wchmm (re)build completed
STAT: SR00 _default composed
STAT: [3] initialize for acoustic HMM calculation
Stat: outprob_init: state-level mixture PDFs, use calc_mix()
Stat: addlog: generating addlog table (size = 1953 kB)
Stat: addlog: addlog table generated
STAT: [4] prepare MFCC storage(s)
STAT: All init successfully done

STAT: ###### initialize input device
----------------------- System Information begin ---------------------
JuliusLib rev.4.4.2.1 (fast)

Engine specification:
 -  Base setup   : fast
 -  Supported LM : DFA, N-gram, Word
 -  Extension    :
 -  Compiled by  : gcc -g -O2
Library configuration: version 4.4.2.1
 - Audio input
    primary A/D-in driver   : coreaudio (MacOSX CoreAudio)
    available drivers       :
    wavefile formats        : RAW and WAV only
    max. length of an input : 320000 samples, 150 words
 - Language Model
    class N-gram support    : yes
    MBR weight support      : yes
    word id unit            : short (2 bytes)
 - Acoustic Model
    multi-path treatment    : autodetect
 - External library
    file decompression by   : zlib library
 - Process hangling
    fork on adinnet input   : no
 - built-in SIMD instruction set for DNN
    SSE AVX FMA
    FMA is available maximum on this cpu, use it


------------------------------------------------------------
Configuration of Modules

 Number of defined modules: AM=1, LM=1, SR=1

 Acoustic Model (with input parameter spec.):
 - AM00 "_default"
	hmmfilename=./models/hmmdefs_monof_mix16_gid.binhmm

 Language Model:
 - LM00 "_default"
	grammar #1:
	    dfa  = data/tsuchiya_angry/wav/tsuchiya_angry_032_for_julius.dfa
	    dict = data/tsuchiya_angry/wav/tsuchiya_angry_032_for_julius.dict

 Recognizer:
 - SR00 "_default" (AM00, LM00)

------------------------------------------------------------
Speech Analysis Module(s)

[MFCC01]  for [AM00 _default]

 Acoustic analysis condition:
	       parameter = MFCC_E_D_N_Z (25 dim. from 12 cepstrum + energy, abs energy supressed with CMN)
	sample frequency = 16000 Hz
	   sample period =  625  (1 = 100ns)
	     window size =  400 samples (25.0 ms)
	     frame shift =  160 samples (10.0 ms)
	    pre-emphasis = 0.97
	    # filterbank = 24
	   cepst. lifter = 22
	      raw energy = False
	energy normalize = False
	    delta window = 2 frames (20.0 ms) around
	     hi freq cut = OFF
	     lo freq cut = OFF
	 zero mean frame = OFF
	       use power = OFF
	             CVN = OFF
	            VTLN = OFF

    spectral subtraction = off

 cep. mean normalization = yes, with per-utterance self mean
 cep. var. normalization = no

	 base setup from = Julius defaults

------------------------------------------------------------
Acoustic Model(s)

[AM00 "_default"]

 HMM Info:
    43 models, 129 states, 129 mpdfs, 2064 Gaussians are defined
	      model type = context dependency handling OFF
      training parameter = MFCC_E_N_D_Z
	   vector length = 25
	number of stream = 1
	     stream info = [0-24]
	cov. matrix type = DIAGC
	   duration type = NULLD
	max mixture size = 16 Gaussians
     max length of model = 5 states
     logical base phones = 43
       model skip trans. = not exist, no multi-path handling

 AM Parameters:
        Gaussian pruning = none (full computation)  (-gprune)
    short pause HMM name = "sp" specified, "sp" applied (physical)  (-sp)
  cross-word CD on pass1 = handle by approx. (use average prob. of same LC)

------------------------------------------------------------
Language Model(s)

[LM00 "_default"] type=grammar

 DFA grammar info:
      4 nodes, 3 arcs, 3 terminal(category) symbols
      category-pair matrix: 16 bytes (448 bytes allocated)

 Vocabulary Info:
        vocabulary size  = 3 words, 95 models
        average word len = 31.7 models, 95.0 states
       maximum state num = 279 nodes per word
       transparent words = not exist
       words under class = not exist

 Parameters:
   found sp category IDs =

------------------------------------------------------------
Recognizer(s)

[SR00 "_default"]  AM00 "_default"  +  LM00 "_default"

 Lexicon tree:
	 total node num =    285
	  root node num =      3
	  leaf node num =      3

	(-penalty1) IW penalty1 = +0.0
	(-penalty2) IW penalty2 = +0.0
	(-cmalpha)CM alpha coef = 0.050000

 Search parameters: 
	    multi-path handling = no
	(-b) trellis beam width = 200 (-1 or not specified - guessed)
	(-bs)score pruning thres= disabled
	(-n)search candidate num= 1
	(-s)  search stack size = 500
	(-m)    search overflow = after 2000 hypothesis poped
	        2nd pass method = searching sentence, generating N-best
	(-b2)  pass2 beam width = 30
	(-lookuprange)lookup range= 5  (tm-5 <= t <tm+5)
	(-sb)2nd scan beamthres = 80.0 (in logscore)
	(-n)        search till = 1 candidates found
	(-output)    and output = 1 candidates out of above
	 output phoneme alignments
	 all possible words will be expanded in 2nd pass
	 build_wchmm2() used
	 lcdset limited by word-pair constraint
	short pause segmentation = off
	fall back on search fail = off, returns search failure

------------------------------------------------------------
Decoding algorithm:

	1st pass input processing = buffered, batch
	1st pass method = 1-best approx. generating indexed trellis
	output word confidence measure based on search-time scores

------------------------------------------------------------
FrontEnd:

 Input stream:
	             input type = waveform
	           input source = waveform file
	          input filelist = (none, get file name from stdin)
	          sampling freq. = 16000 Hz required
	         threaded A/D-in = supported, off
	   zero frames stripping = on
	         silence cutting = off
	    long-term DC removal = off
	    level scaling factor = 1.00 (disabled)
	      reject short input = off
	      reject  long input = off

----------------------- System Information end -----------------------

Notice for feature extraction (01),
	*************************************************************
	* Cepstral mean normalization for batch decoding:           *
	* per-utterance mean will be computed and applied.          *
	*************************************************************

------
### read waveform input
Stat: adin_file: input speechfile: data/tsuchiya_angry/wav/tsuchiya_angry_032_for_julius.wav
Warning: strip: sample 406-421 has zero value, stripped
Warning: strip: sample 1920-1943 has zero value, stripped
Warning: strip: sample 88239-88254 has zero value, stripped
Warning: strip: sample 88313-88343 has zero value, stripped
Warning: strip: sample 127501-127521 has zero value, stripped
Warning: strip: sample 128008-128023 has zero value, stripped
Warning: strip: sample 129561-129579 has zero value, stripped
Warning: strip: sample 129606-129621 has zero value, stripped
Warning: strip: sample 136780-136796 has zero value, stripped
STAT: 145264 samples (9.08 sec.)
STAT: ### speech analysis (waveform -> MFCC)
### Recognition: 1st pass (LR beam)
pass1_best: w_0 w_1 w_2
pass1_best_wordseq: 0 1 2
pass1_best_phonemeseq: silB | k i: ky o k u g a h a q sh i N s u r u ny u: s u n e q t o w a: k u m e i o k a N sh i t a t a i t o r u n o ny u: s u b a N g u m i n o n a k a d e w a r e gy u r a: h o: s o: g a m o q t o m o o: i | silE
pass1_best_score: -23644.781250
### Recognition: 2nd pass (RL heuristic best-first)
STAT: 00 _default: 3 generated, 3 pushed, 4 nodes popped in 906
ALIGN: === phoneme alignment begin ===
sentence1: w_0 w_1 w_2
wseq1: 0 1 2
phseq1: silB | k i: ky o k u g a h a q sh i N s u r u ny u: s u n e q t o w a: k u m e i o k a N sh i t a t a i t o r u n o ny u: s u b a N g u m i n o n a k a d e w a r e gy u r a: h o: s o: g a m o q t o m o o: i | silE
cmscore1: 1.000 1.000 1.000
score1: -23644.796875
=== begin forced alignment ===
-- phoneme alignment --
 id: from  to    n_score    unit
 ----------------------------------------
[   0   19]  -22.296244  silB
[  20   26]  -26.287947  k
[  27   44]  -26.550119  i:
[  45   52]  -29.310730  ky
[  53   56]  -37.134369  o
[  57   61]  -29.639576  k
[  62   70]  -27.524834  u
[  71   76]  -27.787802  g
[  77   79]  -26.723795  a
[  80   87]  -25.870453  h
[  88   91]  -24.677490  a
[  92   94]  -31.522705  q
[  95  105]  -25.984264  sh
[ 106  114]  -24.915066  i
[ 115  118]  -29.819214  N
[ 119  127]  -28.429525  s
[ 128  130]  -27.771078  u
[ 131  138]  -28.081024  r
[ 139  142]  -28.297241  u
[ 143  164]  -26.523481  ny
[ 165  168]  -24.702759  u:
[ 169  179]  -26.850807  s
[ 180  182]  -29.113443  u
[ 183  187]  -27.656250  n
[ 188  198]  -25.489435  e
[ 199  204]  -27.609049  q
[ 205  209]  -27.878321  t
[ 210  214]  -25.085155  o
[ 215  219]  -24.412403  w
[ 220  230]  -25.467375  a:
[ 231  239]  -29.151585  k
[ 240  242]  -25.770996  u
[ 243  252]  -26.820118  m
[ 253  260]  -22.745117  e
[ 261  263]  -29.982748  i
[ 264  272]  -27.654568  o
[ 273  284]  -30.407593  k
[ 285  298]  -24.871826  a
[ 299  301]  -33.371094  N
[ 302  304]  -36.900391  sh
[ 305  307]  -32.832684  i
[ 308  311]  -33.662109  t
[ 312  318]  -30.663923  a
[ 319  328]  -31.222950  t
[ 329  338]  -23.662891  a
[ 339  345]  -28.412249  i
[ 346  350]  -27.515820  t
[ 351  353]  -26.666342  o
[ 354  360]  -27.119141  r
[ 361  363]  -30.327148  u
[ 364  370]  -29.039900  n
[ 371  373]  -30.710938  o
[ 374  392]  -27.639391  ny
[ 393  395]  -28.513672  u:
[ 396  406]  -27.867365  s
[ 407  409]  -25.749674  u
[ 410  417]  -26.428101  b
[ 418  426]  -22.904188  a
[ 427  434]  -26.794067  N
[ 435  437]  -27.458984  g
[ 438  440]  -27.251627  u
[ 441  447]  -27.273716  m
[ 448  451]  -29.363281  i
[ 452  455]  -27.617676  n
[ 456  459]  -27.128906  o
[ 460  469]  -30.088573  n
[ 470  477]  -27.485474  a
[ 478  482]  -31.214649  k
[ 483  489]  -26.275391  a
[ 490  492]  -27.713217  d
[ 493  496]  -26.291748  e
[ 497  512]  -24.189270  w
[ 513  524]  -28.488770  a
[ 525  570]  -27.409138  r
[ 571  581]  -26.204102  e
[ 582  589]  -26.466919  gy
[ 590  592]  -28.386068  u
[ 593  599]  -28.320871  r
[ 600  614]  -21.234505  a:
[ 615  622]  -26.023193  h
[ 623  637]  -23.405729  o:
[ 638  650]  -28.228966  s
[ 651  658]  -27.463867  o:
[ 659  663]  -27.651953  g
[ 664  670]  -26.268972  a
[ 671  682]  -28.772461  m
[ 683  689]  -28.858538  o
[ 690  705]  -25.008179  q
[ 706  711]  -26.547201  t
[ 712  719]  -24.900635  o
[ 720  726]  -27.192522  m
[ 727  749]  -23.147503  o
[ 750  757]  -27.072998  o:
[ 758  783]  -28.945011  i
[ 784  905]  -20.669907  silE
re-computed AM score: -23644.781250
=== end forced alignment ===


------
### read waveform input
